%!PS-Adobe-3.0
%%Creator: PCBNEW
%%CreationDate: Mon Jan  3 16:04:51 2022
%%Title: ()
%%Pages: 1
%%PageOrder: Ascend
%%BoundingBox: 0 0 596 842
%%DocumentMedia: A4 595 842 0 () ()
%%Orientation: Landscape
%%EndComments
%%BeginProlog
/line { newpath moveto lineto stroke } bind def
/cir0 { newpath 0 360 arc stroke } bind def
/cir1 { newpath 0 360 arc gsave fill grestore stroke } bind def
/cir2 { newpath 0 360 arc gsave fill grestore stroke } bind def
/arc0 { newpath arc stroke } bind def
/arc1 { newpath 4 index 4 index moveto arc closepath gsave fill
    grestore stroke } bind def
/arc2 { newpath 4 index 4 index moveto arc closepath gsave fill
    grestore stroke } bind def
/poly0 { stroke } bind def
/poly1 { closepath gsave fill grestore stroke } bind def
/poly2 { closepath gsave fill grestore stroke } bind def
/rect0 { rectstroke } bind def
/rect1 { rectfill } bind def
/rect2 { rectfill } bind def
/linemode0 { 0 setlinecap 0 setlinejoin 0 setlinewidth } bind def
/linemode1 { 1 setlinecap 1 setlinejoin } bind def
/dashedline { [200] 100 setdash } bind def
/solidline { [] 0 setdash } bind def
/phantomshow { moveto
    /KicadFont findfont 0.000001 scalefont setfont
    show } bind def
/textshow { gsave
    findfont exch scalefont setfont concat 1 scale 0 0 moveto show
    } bind def
/reencodefont {
  findfont dup length dict begin
  { 1 index /FID ne
    { def }
    { pop pop } ifelse
  } forall
  /Encoding ISOLatin1Encoding def
  currentdict
  end } bind def
/KicadFont /Helvetica reencodefont definefont pop
/KicadFont-Bold /Helvetica-Bold reencodefont definefont pop
/KicadFont-Oblique /Helvetica-Oblique reencodefont definefont pop
/KicadFont-BoldOblique /Helvetica-BoldOblique reencodefont definefont pop
%%EndProlog
%%Page: 1 1
%%BeginPageSetup
gsave
0.0072 0.0072 scale
linemode1
82680 0 translate 90 rotate
168.605 setlinewidth
%%EndPageSetup
0 0 0 setrgbcolor
84.3027 setlinewidth
newpath
4679.87 35082.7 moveto
4679.87 80669.3 lineto
stroke
0 0 0 setrgbcolor
newpath
112250 35082.7 moveto
4679.87 35082.7 lineto
stroke
0 0 0 setrgbcolor
newpath
112250 51985.3 moveto
112250 35082.7 lineto
stroke
0 0 0 setrgbcolor
newpath
4679.87 80669.3 moveto
60846.6 80669.3 lineto
stroke
0 0 0 setrgbcolor
newpath
112250 51985.3 moveto
93071.3 80669.3 lineto
stroke
0 0 0 setrgbcolor
newpath
60846.6 80669.3 moveto
93071.3 80669.3 lineto
stroke
168.605 setlinewidth
33.7211 setlinewidth
newpath
25713.4 69309.6 moveto
26050.6 68972.3 lineto
stroke
newpath
26050.6 69309.6 moveto
25713.4 68972.3 lineto
stroke
newpath
26198.1 59298.6 moveto
26535.3 58961.4 lineto
stroke
newpath
26535.3 59298.6 moveto
26198.1 58961.4 lineto
stroke
newpath
26830.4 66632.9 moveto
27167.6 66295.7 lineto
stroke
newpath
27167.6 66632.9 moveto
26830.4 66295.7 lineto
stroke
newpath
26872.6 61996.3 moveto
27209.8 61659.1 lineto
stroke
newpath
27209.8 61996.3 moveto
26872.6 61659.1 lineto
stroke
newpath
27104.4 65389.5 moveto
27441.6 65052.3 lineto
stroke
newpath
27441.6 65389.5 moveto
27104.4 65052.3 lineto
stroke
newpath
27125.5 64377.8 moveto
27462.7 64040.6 lineto
stroke
newpath
27462.7 64377.8 moveto
27125.5 64040.6 lineto
stroke
newpath
28895.8 59214.3 moveto
29233 58877.1 lineto
stroke
newpath
29233 59214.3 moveto
28895.8 58877.1 lineto
stroke
newpath
33216.3 64630.8 moveto
33553.6 64293.5 lineto
stroke
newpath
33553.6 64630.8 moveto
33216.3 64293.5 lineto
stroke
newpath
33848.6 65284.1 moveto
34185.8 64946.9 lineto
stroke
newpath
34185.8 65284.1 moveto
33848.6 64946.9 lineto
stroke
newpath
34523 66000.7 moveto
34860.2 65663.5 lineto
stroke
newpath
34860.2 66000.7 moveto
34523 65663.5 lineto
stroke
newpath
48917.7 67813.2 moveto
49254.9 67476 lineto
stroke
newpath
49254.9 67813.2 moveto
48917.7 67476 lineto
stroke
newpath
57917 53945.4 moveto
58254.2 53608.2 lineto
stroke
newpath
58254.2 53945.4 moveto
57917 53608.2 lineto
stroke
newpath
65504.3 48550 moveto
65841.5 48212.8 lineto
stroke
newpath
65841.5 48550 moveto
65504.3 48212.8 lineto
stroke
newpath
81479.6 54345.8 moveto
81816.9 54008.6 lineto
stroke
newpath
81816.9 54345.8 moveto
81479.6 54008.6 lineto
stroke
50.5816 setlinewidth
6987.66 51816.7 252.908 cir0
168.605 setlinewidth
newpath
6692.6 51648.1 moveto
7282.72 51648.1 lineto
stroke
newpath
6692.6 51985.3 moveto
7282.72 51985.3 lineto
stroke
7282.72 51816.7 168.605 270 450 arc0
6692.6 51816.7 168.605 90 270 arc0
50.5816 setlinewidth
6987.66 45915.6 252.908 cir0
168.605 setlinewidth
newpath
7282.72 46084.2 moveto
6692.6 46084.2 lineto
stroke
newpath
7282.72 45746.9 moveto
6692.6 45746.9 lineto
stroke
6692.6 45915.6 168.605 450 630 arc0
7282.72 45915.6 168.605 270 450 arc0
67.4422 setlinewidth
newpath
11753.3 47201.6 moveto
11753.3 46527.2 lineto
stroke
newpath
11416.1 46864.4 moveto
12090.5 46864.4 lineto
stroke
newpath
19110.8 59865.1 moveto
19110.8 59190.7 lineto
stroke
newpath
18773.6 59527.9 moveto
19448 59527.9 lineto
stroke
newpath
19959.7 65789.9 moveto
19959.7 65115.5 lineto
stroke
newpath
19622.5 65452.7 moveto
20296.9 65452.7 lineto
stroke
newpath
43501.3 52470.1 moveto
43501.3 51795.7 lineto
stroke
newpath
43164.1 52132.9 moveto
43838.5 52132.9 lineto
stroke
newpath
68180.9 66485.4 moveto
68180.9 65811 lineto
stroke
newpath
67843.7 66148.2 moveto
68518.1 66148.2 lineto
stroke
newpath
16341.3 53074.7 moveto
16341.3 53551.6 lineto
15864.4 53551.6 lineto
15864.4 53074.7 lineto
16341.3 53074.7 lineto
poly0
newpath
16341.3 51388.6 moveto
16341.3 51865.5 lineto
15864.4 51865.5 lineto
15864.4 51388.6 lineto
16341.3 51388.6 lineto
poly0
newpath
16341.3 49702.6 moveto
16341.3 50179.5 lineto
15864.4 50179.5 lineto
15864.4 49702.6 lineto
16341.3 49702.6 lineto
poly0
newpath
42289.7 71178.7 moveto
42289.7 71655.6 lineto
41812.8 71655.6 lineto
41812.8 71178.7 lineto
42289.7 71178.7 lineto
poly0
newpath
42289.7 58330.9 moveto
42289.7 58807.8 lineto
41812.8 58807.8 lineto
41812.8 58330.9 lineto
42289.7 58330.9 lineto
poly0
newpath
44431 71178.7 moveto
44431 71655.6 lineto
43954.1 71655.6 lineto
43954.1 71178.7 lineto
44431 71178.7 lineto
poly0
newpath
44431 58330.9 moveto
44431 58807.8 lineto
43954.1 58807.8 lineto
43954.1 58330.9 lineto
44431 58330.9 lineto
poly0
newpath
46572.3 71178.7 moveto
46572.3 71655.6 lineto
46095.4 71655.6 lineto
46095.4 71178.7 lineto
46572.3 71178.7 lineto
poly0
newpath
46572.3 58330.9 moveto
46572.3 58807.8 lineto
46095.4 58807.8 lineto
46095.4 58330.9 lineto
46572.3 58330.9 lineto
poly0
newpath
48713.6 71178.7 moveto
48713.6 71655.6 lineto
48236.7 71655.6 lineto
48236.7 71178.7 lineto
48713.6 71178.7 lineto
poly0
newpath
48713.6 58330.9 moveto
48713.6 58807.8 lineto
48236.7 58807.8 lineto
48236.7 58330.9 lineto
48713.6 58330.9 lineto
poly0
newpath
50854.9 71178.7 moveto
50854.9 71655.6 lineto
50378 71655.6 lineto
50378 71178.7 lineto
50854.9 71178.7 lineto
poly0
newpath
50854.9 58330.9 moveto
50854.9 58807.8 lineto
50378 58807.8 lineto
50378 58330.9 lineto
50854.9 58330.9 lineto
poly0
newpath
52996.2 71178.7 moveto
52996.2 71655.6 lineto
52519.3 71655.6 lineto
52519.3 71178.7 lineto
52996.2 71178.7 lineto
poly0
newpath
52996.2 58330.9 moveto
52996.2 58807.8 lineto
52519.3 58807.8 lineto
52519.3 58330.9 lineto
52996.2 58330.9 lineto
poly0
newpath
55137.4 71178.7 moveto
55137.4 71655.6 lineto
54660.5 71655.6 lineto
54660.5 71178.7 lineto
55137.4 71178.7 lineto
poly0
newpath
55137.4 58330.9 moveto
55137.4 58807.8 lineto
54660.5 58807.8 lineto
54660.5 58330.9 lineto
55137.4 58330.9 lineto
poly0
newpath
57278.7 71178.7 moveto
57278.7 71655.6 lineto
56801.8 71655.6 lineto
56801.8 71178.7 lineto
57278.7 71178.7 lineto
poly0
newpath
57278.7 58330.9 moveto
57278.7 58807.8 lineto
56801.8 58807.8 lineto
56801.8 58330.9 lineto
57278.7 58330.9 lineto
poly0
newpath
59420 71178.7 moveto
59420 71655.6 lineto
58943.1 71655.6 lineto
58943.1 71178.7 lineto
59420 71178.7 lineto
poly0
newpath
59420 58330.9 moveto
59420 58807.8 lineto
58943.1 58807.8 lineto
58943.1 58330.9 lineto
59420 58330.9 lineto
poly0
newpath
61561.3 71178.7 moveto
61561.3 71655.6 lineto
61084.4 71655.6 lineto
61084.4 71178.7 lineto
61561.3 71178.7 lineto
poly0
newpath
61561.3 58330.9 moveto
61561.3 58807.8 lineto
61084.4 58807.8 lineto
61084.4 58330.9 lineto
61561.3 58330.9 lineto
poly0
newpath
63702.6 71178.7 moveto
63702.6 71655.6 lineto
63225.7 71655.6 lineto
63225.7 71178.7 lineto
63702.6 71178.7 lineto
poly0
newpath
63702.6 58330.9 moveto
63702.6 58807.8 lineto
63225.7 58807.8 lineto
63225.7 58330.9 lineto
63702.6 58330.9 lineto
poly0
newpath
65843.9 71178.7 moveto
65843.9 71655.6 lineto
65367 71655.6 lineto
65367 71178.7 lineto
65843.9 71178.7 lineto
poly0
newpath
65843.9 58330.9 moveto
65843.9 58807.8 lineto
65367 58807.8 lineto
65367 58330.9 lineto
65843.9 58330.9 lineto
poly0
newpath
67985.2 71178.7 moveto
67985.2 71655.6 lineto
67508.3 71655.6 lineto
67508.3 71178.7 lineto
67985.2 71178.7 lineto
poly0
newpath
67985.2 58330.9 moveto
67985.2 58807.8 lineto
67508.3 58807.8 lineto
67508.3 58330.9 lineto
67985.2 58330.9 lineto
poly0
newpath
70126.5 71178.7 moveto
70126.5 71655.6 lineto
69649.6 71655.6 lineto
69649.6 71178.7 lineto
70126.5 71178.7 lineto
poly0
newpath
70126.5 58330.9 moveto
70126.5 58807.8 lineto
69649.6 58807.8 lineto
69649.6 58330.9 lineto
70126.5 58330.9 lineto
poly0
newpath
72267.8 71178.7 moveto
72267.8 71655.6 lineto
71790.9 71655.6 lineto
71790.9 71178.7 lineto
72267.8 71178.7 lineto
poly0
newpath
72267.8 58330.9 moveto
72267.8 58807.8 lineto
71790.9 58807.8 lineto
71790.9 58330.9 lineto
72267.8 58330.9 lineto
poly0
newpath
74409 71178.7 moveto
74409 71655.6 lineto
73932.1 71655.6 lineto
73932.1 71178.7 lineto
74409 71178.7 lineto
poly0
newpath
74409 58330.9 moveto
74409 58807.8 lineto
73932.1 58807.8 lineto
73932.1 58330.9 lineto
74409 58330.9 lineto
poly0
newpath
76550.3 71178.7 moveto
76550.3 71655.6 lineto
76073.4 71655.6 lineto
76073.4 71178.7 lineto
76550.3 71178.7 lineto
poly0
newpath
76550.3 58330.9 moveto
76550.3 58807.8 lineto
76073.4 58807.8 lineto
76073.4 58330.9 lineto
76550.3 58330.9 lineto
poly0
newpath
78691.6 71178.7 moveto
78691.6 71655.6 lineto
78214.7 71655.6 lineto
78214.7 71178.7 lineto
78691.6 71178.7 lineto
poly0
newpath
78691.6 58330.9 moveto
78691.6 58807.8 lineto
78214.7 58807.8 lineto
78214.7 58330.9 lineto
78691.6 58330.9 lineto
poly0
newpath
80832.9 71178.7 moveto
80832.9 71655.6 lineto
80356 71655.6 lineto
80356 71178.7 lineto
80832.9 71178.7 lineto
poly0
newpath
80832.9 58330.9 moveto
80832.9 58807.8 lineto
80356 58807.8 lineto
80356 58330.9 lineto
80832.9 58330.9 lineto
poly0
newpath
82974.2 71178.7 moveto
82974.2 71655.6 lineto
82497.3 71655.6 lineto
82497.3 71178.7 lineto
82974.2 71178.7 lineto
poly0
newpath
82974.2 58330.9 moveto
82974.2 58807.8 lineto
82497.3 58807.8 lineto
82497.3 58330.9 lineto
82974.2 58330.9 lineto
poly0
newpath
85115.5 71178.7 moveto
85115.5 71655.6 lineto
84638.6 71655.6 lineto
84638.6 71178.7 lineto
85115.5 71178.7 lineto
poly0
newpath
85115.5 58330.9 moveto
85115.5 58807.8 lineto
84638.6 58807.8 lineto
84638.6 58330.9 lineto
85115.5 58330.9 lineto
poly0
newpath
87256.8 71178.7 moveto
87256.8 71655.6 lineto
86779.9 71655.6 lineto
86779.9 71178.7 lineto
87256.8 71178.7 lineto
poly0
newpath
87256.8 58330.9 moveto
87256.8 58807.8 lineto
86779.9 58807.8 lineto
86779.9 58330.9 lineto
87256.8 58330.9 lineto
poly0
newpath
89398.1 71178.7 moveto
89398.1 71655.6 lineto
88921.2 71655.6 lineto
88921.2 71178.7 lineto
89398.1 71178.7 lineto
poly0
newpath
89398.1 58330.9 moveto
89398.1 58807.8 lineto
88921.2 58807.8 lineto
88921.2 58330.9 lineto
89398.1 58330.9 lineto
poly0
newpath
91539.4 71178.7 moveto
91539.4 71655.6 lineto
91062.5 71655.6 lineto
91062.5 71178.7 lineto
91539.4 71178.7 lineto
poly0
newpath
91539.4 58330.9 moveto
91539.4 58807.8 lineto
91062.5 58807.8 lineto
91062.5 58330.9 lineto
91539.4 58330.9 lineto
poly0
71.6573 setlinewidth
newpath
9263.83 50615.4 moveto
9622.12 50973.7 lineto
9263.83 51332 lineto
8905.55 50973.7 lineto
9263.83 50615.4 lineto
poly0
newpath
9263.83 46400.3 moveto
9622.12 46758.6 lineto
9263.83 47116.9 lineto
8905.55 46758.6 lineto
9263.83 46400.3 lineto
poly0
85.6516 setlinewidth
newpath
25655.2 49804.4 moveto
26511.7 48947.9 lineto
stroke
newpath
26511.7 49804.4 moveto
25655.2 48947.9 lineto
stroke
26083.5 49376.2 428.258 cir0
newpath
25655.2 45521.9 moveto
26511.7 44665.3 lineto
stroke
newpath
26511.7 45521.9 moveto
25655.2 44665.3 lineto
stroke
26083.5 45093.6 428.258 cir0
newpath
27796.5 49804.4 moveto
28653 48947.9 lineto
stroke
newpath
28653 49804.4 moveto
27796.5 48947.9 lineto
stroke
28224.8 49376.2 428.258 cir0
newpath
27796.5 45521.9 moveto
28653 44665.3 lineto
stroke
newpath
28653 45521.9 moveto
27796.5 44665.3 lineto
stroke
28224.8 45093.6 428.258 cir0
newpath
29937.8 49804.4 moveto
30794.3 48947.9 lineto
stroke
newpath
30794.3 49804.4 moveto
29937.8 48947.9 lineto
stroke
30366.1 49376.2 428.258 cir0
newpath
29937.8 45521.9 moveto
30794.3 44665.3 lineto
stroke
newpath
30794.3 45521.9 moveto
29937.8 44665.3 lineto
stroke
30366.1 45093.6 428.258 cir0
newpath
32079.1 49804.4 moveto
32935.6 48947.9 lineto
stroke
newpath
32935.6 49804.4 moveto
32079.1 48947.9 lineto
stroke
32507.4 49376.2 428.258 cir0
newpath
32079.1 45521.9 moveto
32935.6 44665.3 lineto
stroke
newpath
32935.6 45521.9 moveto
32079.1 44665.3 lineto
stroke
32507.4 45093.6 428.258 cir0
newpath
34220.4 49804.4 moveto
35076.9 48947.9 lineto
stroke
newpath
35076.9 49804.4 moveto
34220.4 48947.9 lineto
stroke
34648.6 49376.2 428.258 cir0
newpath
34220.4 45521.9 moveto
35076.9 44665.3 lineto
stroke
newpath
35076.9 45521.9 moveto
34220.4 44665.3 lineto
stroke
34648.6 45093.6 428.258 cir0
newpath
36361.7 49804.4 moveto
37218.2 48947.9 lineto
stroke
newpath
37218.2 49804.4 moveto
36361.7 48947.9 lineto
stroke
36789.9 49376.2 428.258 cir0
newpath
36361.7 45521.9 moveto
37218.2 44665.3 lineto
stroke
newpath
37218.2 45521.9 moveto
36361.7 44665.3 lineto
stroke
36789.9 45093.6 428.258 cir0
newpath
38503 49804.4 moveto
39359.5 48947.9 lineto
stroke
newpath
39359.5 49804.4 moveto
38503 48947.9 lineto
stroke
38931.2 49376.2 428.258 cir0
newpath
38503 45521.9 moveto
39359.5 44665.3 lineto
stroke
newpath
39359.5 45521.9 moveto
38503 44665.3 lineto
stroke
38931.2 45093.6 428.258 cir0
newpath
40644.3 49804.4 moveto
41500.8 48947.9 lineto
stroke
newpath
41500.8 49804.4 moveto
40644.3 48947.9 lineto
stroke
41072.5 49376.2 428.258 cir0
newpath
40644.3 45521.9 moveto
41500.8 44665.3 lineto
stroke
newpath
41500.8 45521.9 moveto
40644.3 44665.3 lineto
stroke
41072.5 45093.6 428.258 cir0
newpath
42785.5 49804.4 moveto
43642.1 48947.9 lineto
stroke
newpath
43642.1 49804.4 moveto
42785.5 48947.9 lineto
stroke
43213.8 49376.2 428.258 cir0
newpath
42785.5 45521.9 moveto
43642.1 44665.3 lineto
stroke
newpath
43642.1 45521.9 moveto
42785.5 44665.3 lineto
stroke
43213.8 45093.6 428.258 cir0
newpath
44926.8 49804.4 moveto
45783.3 48947.9 lineto
stroke
newpath
45783.3 49804.4 moveto
44926.8 48947.9 lineto
stroke
45355.1 49376.2 428.258 cir0
newpath
44926.8 45521.9 moveto
45783.3 44665.3 lineto
stroke
newpath
45783.3 45521.9 moveto
44926.8 44665.3 lineto
stroke
45355.1 45093.6 428.258 cir0
newpath
47068.1 49804.4 moveto
47924.6 48947.9 lineto
stroke
newpath
47924.6 49804.4 moveto
47068.1 48947.9 lineto
stroke
47496.4 49376.2 428.258 cir0
newpath
47068.1 45521.9 moveto
47924.6 44665.3 lineto
stroke
newpath
47924.6 45521.9 moveto
47068.1 44665.3 lineto
stroke
47496.4 45093.6 428.258 cir0
newpath
49209.4 49804.4 moveto
50065.9 48947.9 lineto
stroke
newpath
50065.9 49804.4 moveto
49209.4 48947.9 lineto
stroke
49637.7 49376.2 428.258 cir0
newpath
49209.4 45521.9 moveto
50065.9 44665.3 lineto
stroke
newpath
50065.9 45521.9 moveto
49209.4 44665.3 lineto
stroke
49637.7 45093.6 428.258 cir0
newpath
51350.7 49804.4 moveto
52207.2 48947.9 lineto
stroke
newpath
52207.2 49804.4 moveto
51350.7 48947.9 lineto
stroke
51779 49376.2 428.258 cir0
newpath
51350.7 45521.9 moveto
52207.2 44665.3 lineto
stroke
newpath
52207.2 45521.9 moveto
51350.7 44665.3 lineto
stroke
51779 45093.6 428.258 cir0
newpath
53492 49804.4 moveto
54348.5 48947.9 lineto
stroke
newpath
54348.5 49804.4 moveto
53492 48947.9 lineto
stroke
53920.2 49376.2 428.258 cir0
newpath
53492 45521.9 moveto
54348.5 44665.3 lineto
stroke
newpath
54348.5 45521.9 moveto
53492 44665.3 lineto
stroke
53920.2 45093.6 428.258 cir0
newpath
55633.3 49804.4 moveto
56489.8 48947.9 lineto
stroke
newpath
56489.8 49804.4 moveto
55633.3 48947.9 lineto
stroke
56061.5 49376.2 428.258 cir0
newpath
55633.3 45521.9 moveto
56489.8 44665.3 lineto
stroke
newpath
56489.8 45521.9 moveto
55633.3 44665.3 lineto
stroke
56061.5 45093.6 428.258 cir0
newpath
57774.6 49804.4 moveto
58631.1 48947.9 lineto
stroke
newpath
58631.1 49804.4 moveto
57774.6 48947.9 lineto
stroke
58202.8 49376.2 428.258 cir0
newpath
57774.6 45521.9 moveto
58631.1 44665.3 lineto
stroke
newpath
58631.1 45521.9 moveto
57774.6 44665.3 lineto
stroke
58202.8 45093.6 428.258 cir0
newpath
59915.9 49804.4 moveto
60772.4 48947.9 lineto
stroke
newpath
60772.4 49804.4 moveto
59915.9 48947.9 lineto
stroke
60344.1 49376.2 428.258 cir0
newpath
59915.9 45521.9 moveto
60772.4 44665.3 lineto
stroke
newpath
60772.4 45521.9 moveto
59915.9 44665.3 lineto
stroke
60344.1 45093.6 428.258 cir0
newpath
62057.1 49804.4 moveto
62913.7 48947.9 lineto
stroke
newpath
62913.7 49804.4 moveto
62057.1 48947.9 lineto
stroke
62485.4 49376.2 428.258 cir0
newpath
62057.1 45521.9 moveto
62913.7 44665.3 lineto
stroke
newpath
62913.7 45521.9 moveto
62057.1 44665.3 lineto
stroke
62485.4 45093.6 428.258 cir0
newpath
70741.2 49804.4 moveto
71597.7 48947.9 lineto
stroke
newpath
71597.7 49804.4 moveto
70741.2 48947.9 lineto
stroke
71169.4 49376.2 428.258 cir0
newpath
70741.2 45521.9 moveto
71597.7 44665.3 lineto
stroke
newpath
71597.7 45521.9 moveto
70741.2 44665.3 lineto
stroke
71169.4 45093.6 428.258 cir0
newpath
72882.4 49804.4 moveto
73739 48947.9 lineto
stroke
newpath
73739 49804.4 moveto
72882.4 48947.9 lineto
stroke
73310.7 49376.2 428.258 cir0
newpath
72882.4 45521.9 moveto
73739 44665.3 lineto
stroke
newpath
73739 45521.9 moveto
72882.4 44665.3 lineto
stroke
73310.7 45093.6 428.258 cir0
newpath
75023.7 49804.4 moveto
75880.3 48947.9 lineto
stroke
newpath
75880.3 49804.4 moveto
75023.7 48947.9 lineto
stroke
75452 49376.2 428.258 cir0
newpath
75023.7 45521.9 moveto
75880.3 44665.3 lineto
stroke
newpath
75880.3 45521.9 moveto
75023.7 44665.3 lineto
stroke
75452 45093.6 428.258 cir0
newpath
77165 49804.4 moveto
78021.5 48947.9 lineto
stroke
newpath
78021.5 49804.4 moveto
77165 48947.9 lineto
stroke
77593.3 49376.2 428.258 cir0
newpath
77165 45521.9 moveto
78021.5 44665.3 lineto
stroke
newpath
78021.5 45521.9 moveto
77165 44665.3 lineto
stroke
77593.3 45093.6 428.258 cir0
newpath
79306.3 49804.4 moveto
80162.8 48947.9 lineto
stroke
newpath
80162.8 49804.4 moveto
79306.3 48947.9 lineto
stroke
79734.6 49376.2 428.258 cir0
newpath
79306.3 45521.9 moveto
80162.8 44665.3 lineto
stroke
newpath
80162.8 45521.9 moveto
79306.3 44665.3 lineto
stroke
79734.6 45093.6 428.258 cir0
newpath
81447.6 49804.4 moveto
82304.1 48947.9 lineto
stroke
newpath
82304.1 49804.4 moveto
81447.6 48947.9 lineto
stroke
81875.9 49376.2 428.258 cir0
newpath
81447.6 45521.9 moveto
82304.1 44665.3 lineto
stroke
newpath
82304.1 45521.9 moveto
81447.6 44665.3 lineto
stroke
81875.9 45093.6 428.258 cir0
newpath
83588.9 49804.4 moveto
84445.4 48947.9 lineto
stroke
newpath
84445.4 49804.4 moveto
83588.9 48947.9 lineto
stroke
84017.2 49376.2 428.258 cir0
newpath
83588.9 45521.9 moveto
84445.4 44665.3 lineto
stroke
newpath
84445.4 45521.9 moveto
83588.9 44665.3 lineto
stroke
84017.2 45093.6 428.258 cir0
newpath
85730.2 49804.4 moveto
86586.7 48947.9 lineto
stroke
newpath
86586.7 49804.4 moveto
85730.2 48947.9 lineto
stroke
86158.4 49376.2 428.258 cir0
newpath
85730.2 45521.9 moveto
86586.7 44665.3 lineto
stroke
newpath
86586.7 45521.9 moveto
85730.2 44665.3 lineto
stroke
86158.4 45093.6 428.258 cir0
newpath
87871.5 49804.4 moveto
88728 48947.9 lineto
stroke
newpath
88728 49804.4 moveto
87871.5 48947.9 lineto
stroke
88299.7 49376.2 428.258 cir0
newpath
87871.5 45521.9 moveto
88728 44665.3 lineto
stroke
newpath
88728 45521.9 moveto
87871.5 44665.3 lineto
stroke
88299.7 45093.6 428.258 cir0
newpath
90012.8 49804.4 moveto
90869.3 48947.9 lineto
stroke
newpath
90869.3 49804.4 moveto
90012.8 48947.9 lineto
stroke
90441 49376.2 428.258 cir0
newpath
90012.8 45521.9 moveto
90869.3 44665.3 lineto
stroke
newpath
90869.3 45521.9 moveto
90012.8 44665.3 lineto
stroke
90441 45093.6 428.258 cir0
newpath
92154 49804.4 moveto
93010.6 48947.9 lineto
stroke
newpath
93010.6 49804.4 moveto
92154 48947.9 lineto
stroke
92582.3 49376.2 428.258 cir0
newpath
92154 45521.9 moveto
93010.6 44665.3 lineto
stroke
newpath
93010.6 45521.9 moveto
92154 44665.3 lineto
stroke
92582.3 45093.6 428.258 cir0
newpath
94295.3 49804.4 moveto
95151.9 48947.9 lineto
stroke
newpath
95151.9 49804.4 moveto
94295.3 48947.9 lineto
stroke
94723.6 49376.2 428.258 cir0
newpath
94295.3 45521.9 moveto
95151.9 44665.3 lineto
stroke
newpath
95151.9 45521.9 moveto
94295.3 44665.3 lineto
stroke
94723.6 45093.6 428.258 cir0
newpath
96436.6 49804.4 moveto
97293.1 48947.9 lineto
stroke
newpath
97293.1 49804.4 moveto
96436.6 48947.9 lineto
stroke
96864.9 49376.2 428.258 cir0
newpath
96436.6 45521.9 moveto
97293.1 44665.3 lineto
stroke
newpath
97293.1 45521.9 moveto
96436.6 44665.3 lineto
stroke
96864.9 45093.6 428.258 cir0
newpath
98577.9 49804.4 moveto
99434.4 48947.9 lineto
stroke
newpath
99434.4 49804.4 moveto
98577.9 48947.9 lineto
stroke
99006.2 49376.2 428.258 cir0
newpath
98577.9 45521.9 moveto
99434.4 44665.3 lineto
stroke
newpath
99434.4 45521.9 moveto
98577.9 44665.3 lineto
stroke
99006.2 45093.6 428.258 cir0
newpath
100719 49804.4 moveto
101576 48947.9 lineto
stroke
newpath
101576 49804.4 moveto
100719 48947.9 lineto
stroke
101147 49376.2 428.258 cir0
newpath
100719 45521.9 moveto
101576 44665.3 lineto
stroke
newpath
101576 45521.9 moveto
100719 44665.3 lineto
stroke
101147 45093.6 428.258 cir0
newpath
102860 49804.4 moveto
103717 48947.9 lineto
stroke
newpath
103717 49804.4 moveto
102860 48947.9 lineto
stroke
103289 49376.2 428.258 cir0
newpath
102860 45521.9 moveto
103717 44665.3 lineto
stroke
newpath
103717 45521.9 moveto
102860 44665.3 lineto
stroke
103289 45093.6 428.258 cir0
newpath
105002 49804.4 moveto
105858 48947.9 lineto
stroke
newpath
105858 49804.4 moveto
105002 48947.9 lineto
stroke
105430 49376.2 428.258 cir0
newpath
105002 45521.9 moveto
105858 44665.3 lineto
stroke
newpath
105858 45521.9 moveto
105002 44665.3 lineto
stroke
105430 45093.6 428.258 cir0
newpath
107143 49804.4 moveto
108000 48947.9 lineto
stroke
newpath
108000 49804.4 moveto
107143 48947.9 lineto
stroke
107571 49376.2 428.258 cir0
newpath
107143 45521.9 moveto
108000 44665.3 lineto
stroke
newpath
108000 45521.9 moveto
107143 44665.3 lineto
stroke
107571 45093.6 428.258 cir0
126.454 setlinewidth
newpath
15470.6 55715.7 moveto
16735.2 54451.2 lineto
stroke
newpath
16735.2 55715.7 moveto
15470.6 54451.2 lineto
stroke
newpath
16102.9 55715.7 moveto
16102.9 54451.2 lineto
stroke
newpath
15470.6 55083.5 moveto
16735.2 55083.5 lineto
stroke
newpath
15470.6 48802.9 moveto
16735.2 47538.4 lineto
stroke
newpath
16735.2 48802.9 moveto
15470.6 47538.4 lineto
stroke
newpath
16102.9 48802.9 moveto
16102.9 47538.4 lineto
stroke
newpath
15470.6 48170.7 moveto
16735.2 48170.7 lineto
stroke
168.605 setlinewidth
78.7404 setlinewidth
0 0 0 setrgbcolor
0 0 0 setrgbcolor
newpath
5651.97 33818.2 moveto
5651.97 34605.6 lineto
5839.45 34605.6 lineto
5951.93 34568.1 lineto
6026.92 34493.1 lineto
6064.42 34418.1 lineto
6101.91 34268.1 lineto
6101.91 34155.6 lineto
6064.42 34005.6 lineto
6026.92 33930.6 lineto
5951.93 33855.7 lineto
5839.45 33818.2 lineto
5651.97 33818.2 lineto
stroke
newpath
6439.37 33818.2 moveto
6439.37 34343.1 lineto
stroke
newpath
6439.37 34193.1 moveto
6476.87 34268.1 lineto
6514.36 34305.6 lineto
6589.35 34343.1 lineto
6664.34 34343.1 lineto
stroke
newpath
6926.81 33818.2 moveto
6926.81 34343.1 lineto
stroke
newpath
6926.81 34605.6 moveto
6889.32 34568.1 lineto
6926.81 34530.6 lineto
6964.31 34568.1 lineto
6926.81 34605.6 lineto
6926.81 34530.6 lineto
stroke
newpath
7414.25 33818.2 moveto
7339.26 33855.7 lineto
7301.76 33930.6 lineto
7301.76 34605.6 lineto
stroke
newpath
7826.7 33818.2 moveto
7751.71 33855.7 lineto
7714.21 33930.6 lineto
7714.21 34605.6 lineto
stroke
newpath
8726.59 33818.2 moveto
8726.59 34605.6 lineto
8989.05 34043.1 lineto
9251.52 34605.6 lineto
9251.52 33818.2 lineto
stroke
newpath
9963.93 33818.2 moveto
9963.93 34230.6 lineto
9926.44 34305.6 lineto
9851.45 34343.1 lineto
9701.46 34343.1 lineto
9626.47 34305.6 lineto
stroke
newpath
9963.93 33855.7 moveto
9888.94 33818.2 lineto
9701.46 33818.2 lineto
9626.47 33855.7 lineto
9588.98 33930.6 lineto
9588.98 34005.6 lineto
9626.47 34080.6 lineto
9701.46 34118.1 lineto
9888.94 34118.1 lineto
9963.93 34155.6 lineto
stroke
newpath
10338.9 34343.1 moveto
10338.9 33555.7 lineto
stroke
newpath
10338.9 34305.6 moveto
10413.9 34343.1 lineto
10563.9 34343.1 lineto
10638.8 34305.6 lineto
10676.3 34268.1 lineto
10713.8 34193.1 lineto
10713.8 33968.1 lineto
10676.3 33893.1 lineto
10638.8 33855.7 lineto
10563.9 33818.2 lineto
10413.9 33818.2 lineto
10338.9 33855.7 lineto
stroke
newpath
11051.3 33893.1 moveto
11088.8 33855.7 lineto
11051.3 33818.2 lineto
11013.8 33855.7 lineto
11051.3 33893.1 lineto
11051.3 33818.2 lineto
stroke
newpath
11051.3 34305.6 moveto
11088.8 34268.1 lineto
11051.3 34230.6 lineto
11013.8 34268.1 lineto
11051.3 34305.6 lineto
11051.3 34230.6 lineto
stroke
33.7211 setlinewidth
newpath
4300.51 32689.4 moveto
4637.72 32352.2 lineto
stroke
newpath
4637.72 32689.4 moveto
4300.51 32352.2 lineto
stroke
168.605 setlinewidth
78.7404 setlinewidth
0 0 0 setrgbcolor
0 0 0 setrgbcolor
newpath
5801.95 32952 moveto
5876.94 32952 lineto
5951.93 32914.5 lineto
5989.43 32877 lineto
6026.92 32802 lineto
6064.42 32652.1 lineto
6064.42 32464.6 lineto
6026.92 32314.6 lineto
5989.43 32239.6 lineto
5951.93 32202.1 lineto
5876.94 32164.6 lineto
5801.95 32164.6 lineto
5726.96 32202.1 lineto
5689.47 32239.6 lineto
5651.97 32314.6 lineto
5614.47 32464.6 lineto
5614.47 32652.1 lineto
5651.97 32802 lineto
5689.47 32877 lineto
5726.96 32914.5 lineto
5801.95 32952 lineto
stroke
newpath
6401.88 32239.6 moveto
6439.37 32202.1 lineto
6401.88 32164.6 lineto
6364.38 32202.1 lineto
6401.88 32239.6 lineto
6401.88 32164.6 lineto
stroke
newpath
7114.29 32689.5 moveto
7114.29 32164.6 lineto
stroke
newpath
6926.81 32989.5 moveto
6739.33 32427.1 lineto
7226.77 32427.1 lineto
stroke
newpath
7676.72 32952 moveto
7751.71 32952 lineto
7826.7 32914.5 lineto
7864.19 32877 lineto
7901.69 32802 lineto
7939.18 32652.1 lineto
7939.18 32464.6 lineto
7901.69 32314.6 lineto
7864.19 32239.6 lineto
7826.7 32202.1 lineto
7751.71 32164.6 lineto
7676.72 32164.6 lineto
7601.73 32202.1 lineto
7564.23 32239.6 lineto
7526.74 32314.6 lineto
7489.24 32464.6 lineto
7489.24 32652.1 lineto
7526.74 32802 lineto
7564.23 32877 lineto
7601.73 32914.5 lineto
7676.72 32952 lineto
stroke
newpath
8426.62 32952 moveto
8501.61 32952 lineto
8576.6 32914.5 lineto
8614.1 32877 lineto
8651.59 32802 lineto
8689.09 32652.1 lineto
8689.09 32464.6 lineto
8651.59 32314.6 lineto
8614.1 32239.6 lineto
8576.6 32202.1 lineto
8501.61 32164.6 lineto
8426.62 32164.6 lineto
8351.63 32202.1 lineto
8314.14 32239.6 lineto
8276.64 32314.6 lineto
8239.15 32464.6 lineto
8239.15 32652.1 lineto
8276.64 32802 lineto
8314.14 32877 lineto
8351.63 32914.5 lineto
8426.62 32952 lineto
stroke
newpath
9026.55 32164.6 moveto
9026.55 32689.5 lineto
stroke
newpath
9026.55 32614.6 moveto
9064.04 32652.1 lineto
9139.03 32689.5 lineto
9251.52 32689.5 lineto
9326.51 32652.1 lineto
9364.01 32577.1 lineto
9364.01 32164.6 lineto
stroke
newpath
9364.01 32577.1 moveto
9401.5 32652.1 lineto
9476.49 32689.5 lineto
9588.98 32689.5 lineto
9663.97 32652.1 lineto
9701.46 32577.1 lineto
9701.46 32164.6 lineto
stroke
newpath
10076.4 32164.6 moveto
10076.4 32689.5 lineto
stroke
newpath
10076.4 32614.6 moveto
10113.9 32652.1 lineto
10188.9 32689.5 lineto
10301.4 32689.5 lineto
10376.4 32652.1 lineto
10413.9 32577.1 lineto
10413.9 32164.6 lineto
stroke
newpath
10413.9 32577.1 moveto
10451.4 32652.1 lineto
10526.4 32689.5 lineto
10638.8 32689.5 lineto
10713.8 32652.1 lineto
10751.3 32577.1 lineto
10751.3 32164.6 lineto
stroke
newpath
12288.6 32989.5 moveto
11613.7 31977.1 lineto
stroke
newpath
13301 32952 moveto
13376 32952 lineto
13451 32914.5 lineto
13488.5 32877 lineto
13526 32802 lineto
13563.5 32652.1 lineto
13563.5 32464.6 lineto
13526 32314.6 lineto
13488.5 32239.6 lineto
13451 32202.1 lineto
13376 32164.6 lineto
13301 32164.6 lineto
13226 32202.1 lineto
13188.5 32239.6 lineto
13151 32314.6 lineto
13113.5 32464.6 lineto
13113.5 32652.1 lineto
13151 32802 lineto
13188.5 32877 lineto
13226 32914.5 lineto
13301 32952 lineto
stroke
newpath
13900.9 32239.6 moveto
13938.4 32202.1 lineto
13900.9 32164.6 lineto
13863.4 32202.1 lineto
13900.9 32239.6 lineto
13900.9 32164.6 lineto
stroke
newpath
14425.9 32952 moveto
14500.9 32952 lineto
14575.9 32914.5 lineto
14613.4 32877 lineto
14650.8 32802 lineto
14688.3 32652.1 lineto
14688.3 32464.6 lineto
14650.8 32314.6 lineto
14613.4 32239.6 lineto
14575.9 32202.1 lineto
14500.9 32164.6 lineto
14425.9 32164.6 lineto
14350.9 32202.1 lineto
14313.4 32239.6 lineto
14275.9 32314.6 lineto
14238.4 32464.6 lineto
14238.4 32652.1 lineto
14275.9 32802 lineto
14313.4 32877 lineto
14350.9 32914.5 lineto
14425.9 32952 lineto
stroke
newpath
15438.2 32164.6 moveto
14988.3 32164.6 lineto
stroke
newpath
15213.3 32164.6 moveto
15213.3 32952 lineto
15138.3 32839.5 lineto
15063.3 32764.5 lineto
14988.3 32727 lineto
stroke
newpath
16150.7 32952 moveto
15775.7 32952 lineto
15738.2 32577.1 lineto
15775.7 32614.6 lineto
15850.7 32652.1 lineto
16038.2 32652.1 lineto
16113.2 32614.6 lineto
16150.7 32577.1 lineto
16188.2 32502.1 lineto
16188.2 32314.6 lineto
16150.7 32239.6 lineto
16113.2 32202.1 lineto
16038.2 32164.6 lineto
15850.7 32164.6 lineto
15775.7 32202.1 lineto
15738.2 32239.6 lineto
stroke
newpath
16450.6 32952 moveto
16975.6 32952 lineto
16638.1 32164.6 lineto
stroke
newpath
17238 32952 moveto
17238 32802 lineto
stroke
newpath
17538 32952 moveto
17538 32802 lineto
stroke
newpath
18700.3 31864.7 moveto
18662.8 31902.1 lineto
18587.9 32014.6 lineto
18550.4 32089.6 lineto
18512.9 32202.1 lineto
18475.4 32389.6 lineto
18475.4 32539.6 lineto
18512.9 32727 lineto
18550.4 32839.5 lineto
18587.9 32914.5 lineto
18662.8 33027 lineto
18700.3 33064.5 lineto
stroke
newpath
19412.8 32164.6 moveto
18962.8 32164.6 lineto
stroke
newpath
19187.8 32164.6 moveto
19187.8 32952 lineto
19112.8 32839.5 lineto
19037.8 32764.5 lineto
18962.8 32727 lineto
stroke
newpath
20087.7 32689.5 moveto
20087.7 32164.6 lineto
stroke
newpath
19900.2 32989.5 moveto
19712.7 32427.1 lineto
20200.2 32427.1 lineto
stroke
newpath
21100 32164.6 moveto
21100 32952 lineto
stroke
newpath
21437.5 32164.6 moveto
21437.5 32577.1 lineto
21400 32652.1 lineto
21325 32689.5 lineto
21212.5 32689.5 lineto
21137.5 32652.1 lineto
21100 32614.6 lineto
stroke
newpath
21924.9 32164.6 moveto
21849.9 32202.1 lineto
21812.5 32239.6 lineto
21775 32314.6 lineto
21775 32539.6 lineto
21812.5 32614.6 lineto
21849.9 32652.1 lineto
21924.9 32689.5 lineto
22037.4 32689.5 lineto
22112.4 32652.1 lineto
22149.9 32614.6 lineto
22187.4 32539.6 lineto
22187.4 32314.6 lineto
22149.9 32239.6 lineto
22112.4 32202.1 lineto
22037.4 32164.6 lineto
21924.9 32164.6 lineto
stroke
newpath
22637.3 32164.6 moveto
22562.4 32202.1 lineto
22524.9 32277.1 lineto
22524.9 32952 lineto
stroke
newpath
23237.3 32202.1 moveto
23162.3 32164.6 lineto
23012.3 32164.6 lineto
22937.3 32202.1 lineto
22899.8 32277.1 lineto
22899.8 32577.1 lineto
22937.3 32652.1 lineto
23012.3 32689.5 lineto
23162.3 32689.5 lineto
23237.3 32652.1 lineto
23274.8 32577.1 lineto
23274.8 32502.1 lineto
22899.8 32427.1 lineto
stroke
newpath
23574.7 32202.1 moveto
23649.7 32164.6 lineto
23799.7 32164.6 lineto
23874.7 32202.1 lineto
23912.2 32277.1 lineto
23912.2 32314.6 lineto
23874.7 32389.6 lineto
23799.7 32427.1 lineto
23687.2 32427.1 lineto
23612.2 32464.6 lineto
23574.7 32539.6 lineto
23574.7 32577.1 lineto
23612.2 32652.1 lineto
23687.2 32689.5 lineto
23799.7 32689.5 lineto
23874.7 32652.1 lineto
stroke
newpath
24174.7 31864.7 moveto
24212.2 31902.1 lineto
24287.1 32014.6 lineto
24324.6 32089.6 lineto
24362.1 32202.1 lineto
24399.6 32389.6 lineto
24399.6 32539.6 lineto
24362.1 32727 lineto
24324.6 32839.5 lineto
24287.1 32914.5 lineto
24212.2 33027 lineto
24174.7 33064.5 lineto
stroke
50.5816 setlinewidth
4384.81 31481.4 252.908 cir0
168.605 setlinewidth
78.7404 setlinewidth
0 0 0 setrgbcolor
0 0 0 setrgbcolor
newpath
5801.95 31912.6 moveto
5876.94 31912.6 lineto
5951.93 31875.1 lineto
5989.43 31837.7 lineto
6026.92 31762.7 lineto
6064.42 31612.7 lineto
6064.42 31425.2 lineto
6026.92 31275.2 lineto
5989.43 31200.2 lineto
5951.93 31162.7 lineto
5876.94 31125.2 lineto
5801.95 31125.2 lineto
5726.96 31162.7 lineto
5689.47 31200.2 lineto
5651.97 31275.2 lineto
5614.47 31425.2 lineto
5614.47 31612.7 lineto
5651.97 31762.7 lineto
5689.47 31837.7 lineto
5726.96 31875.1 lineto
5801.95 31912.6 lineto
stroke
newpath
6401.88 31200.2 moveto
6439.37 31162.7 lineto
6401.88 31125.2 lineto
6364.38 31162.7 lineto
6401.88 31200.2 lineto
6401.88 31125.2 lineto
stroke
newpath
7114.29 31912.6 moveto
6964.31 31912.6 lineto
6889.32 31875.1 lineto
6851.82 31837.7 lineto
6776.83 31725.2 lineto
6739.33 31575.2 lineto
6739.33 31275.2 lineto
6776.83 31200.2 lineto
6814.32 31162.7 lineto
6889.32 31125.2 lineto
7039.3 31125.2 lineto
7114.29 31162.7 lineto
7151.78 31200.2 lineto
7189.28 31275.2 lineto
7189.28 31462.7 lineto
7151.78 31537.7 lineto
7114.29 31575.2 lineto
7039.3 31612.7 lineto
6889.32 31612.7 lineto
6814.32 31575.2 lineto
6776.83 31537.7 lineto
6739.33 31462.7 lineto
stroke
newpath
7676.72 31912.6 moveto
7751.71 31912.6 lineto
7826.7 31875.1 lineto
7864.19 31837.7 lineto
7901.69 31762.7 lineto
7939.18 31612.7 lineto
7939.18 31425.2 lineto
7901.69 31275.2 lineto
7864.19 31200.2 lineto
7826.7 31162.7 lineto
7751.71 31125.2 lineto
7676.72 31125.2 lineto
7601.73 31162.7 lineto
7564.23 31200.2 lineto
7526.74 31275.2 lineto
7489.24 31425.2 lineto
7489.24 31612.7 lineto
7526.74 31762.7 lineto
7564.23 31837.7 lineto
7601.73 31875.1 lineto
7676.72 31912.6 lineto
stroke
newpath
8426.62 31912.6 moveto
8501.61 31912.6 lineto
8576.6 31875.1 lineto
8614.1 31837.7 lineto
8651.59 31762.7 lineto
8689.09 31612.7 lineto
8689.09 31425.2 lineto
8651.59 31275.2 lineto
8614.1 31200.2 lineto
8576.6 31162.7 lineto
8501.61 31125.2 lineto
8426.62 31125.2 lineto
8351.63 31162.7 lineto
8314.14 31200.2 lineto
8276.64 31275.2 lineto
8239.15 31425.2 lineto
8239.15 31612.7 lineto
8276.64 31762.7 lineto
8314.14 31837.7 lineto
8351.63 31875.1 lineto
8426.62 31912.6 lineto
stroke
newpath
9026.55 31125.2 moveto
9026.55 31650.2 lineto
stroke
newpath
9026.55 31575.2 moveto
9064.04 31612.7 lineto
9139.03 31650.2 lineto
9251.52 31650.2 lineto
9326.51 31612.7 lineto
9364.01 31537.7 lineto
9364.01 31125.2 lineto
stroke
newpath
9364.01 31537.7 moveto
9401.5 31612.7 lineto
9476.49 31650.2 lineto
9588.98 31650.2 lineto
9663.97 31612.7 lineto
9701.46 31537.7 lineto
9701.46 31125.2 lineto
stroke
newpath
10076.4 31125.2 moveto
10076.4 31650.2 lineto
stroke
newpath
10076.4 31575.2 moveto
10113.9 31612.7 lineto
10188.9 31650.2 lineto
10301.4 31650.2 lineto
10376.4 31612.7 lineto
10413.9 31537.7 lineto
10413.9 31125.2 lineto
stroke
newpath
10413.9 31537.7 moveto
10451.4 31612.7 lineto
10526.4 31650.2 lineto
10638.8 31650.2 lineto
10713.8 31612.7 lineto
10751.3 31537.7 lineto
10751.3 31125.2 lineto
stroke
newpath
12288.6 31950.1 moveto
11613.7 30937.8 lineto
stroke
newpath
13301 31912.6 moveto
13376 31912.6 lineto
13451 31875.1 lineto
13488.5 31837.7 lineto
13526 31762.7 lineto
13563.5 31612.7 lineto
13563.5 31425.2 lineto
13526 31275.2 lineto
13488.5 31200.2 lineto
13451 31162.7 lineto
13376 31125.2 lineto
13301 31125.2 lineto
13226 31162.7 lineto
13188.5 31200.2 lineto
13151 31275.2 lineto
13113.5 31425.2 lineto
13113.5 31612.7 lineto
13151 31762.7 lineto
13188.5 31837.7 lineto
13226 31875.1 lineto
13301 31912.6 lineto
stroke
newpath
13900.9 31200.2 moveto
13938.4 31162.7 lineto
13900.9 31125.2 lineto
13863.4 31162.7 lineto
13900.9 31200.2 lineto
13900.9 31125.2 lineto
stroke
newpath
14425.9 31912.6 moveto
14500.9 31912.6 lineto
14575.9 31875.1 lineto
14613.4 31837.7 lineto
14650.8 31762.7 lineto
14688.3 31612.7 lineto
14688.3 31425.2 lineto
14650.8 31275.2 lineto
14613.4 31200.2 lineto
14575.9 31162.7 lineto
14500.9 31125.2 lineto
14425.9 31125.2 lineto
14350.9 31162.7 lineto
14313.4 31200.2 lineto
14275.9 31275.2 lineto
14238.4 31425.2 lineto
14238.4 31612.7 lineto
14275.9 31762.7 lineto
14313.4 31837.7 lineto
14350.9 31875.1 lineto
14425.9 31912.6 lineto
stroke
newpath
14988.3 31837.7 moveto
15025.8 31875.1 lineto
15100.8 31912.6 lineto
15288.3 31912.6 lineto
15363.3 31875.1 lineto
15400.8 31837.7 lineto
15438.2 31762.7 lineto
15438.2 31687.7 lineto
15400.8 31575.2 lineto
14950.8 31125.2 lineto
15438.2 31125.2 lineto
stroke
newpath
15700.7 31912.6 moveto
16188.2 31912.6 lineto
15925.7 31612.7 lineto
16038.2 31612.7 lineto
16113.2 31575.2 lineto
16150.7 31537.7 lineto
16188.2 31462.7 lineto
16188.2 31275.2 lineto
16150.7 31200.2 lineto
16113.2 31162.7 lineto
16038.2 31125.2 lineto
15813.2 31125.2 lineto
15738.2 31162.7 lineto
15700.7 31200.2 lineto
stroke
newpath
16863.1 31912.6 moveto
16713.1 31912.6 lineto
16638.1 31875.1 lineto
16600.6 31837.7 lineto
16525.6 31725.2 lineto
16488.1 31575.2 lineto
16488.1 31275.2 lineto
16525.6 31200.2 lineto
16563.1 31162.7 lineto
16638.1 31125.2 lineto
16788.1 31125.2 lineto
16863.1 31162.7 lineto
16900.6 31200.2 lineto
16938.1 31275.2 lineto
16938.1 31462.7 lineto
16900.6 31537.7 lineto
16863.1 31575.2 lineto
16788.1 31612.7 lineto
16638.1 31612.7 lineto
16563.1 31575.2 lineto
16525.6 31537.7 lineto
16488.1 31462.7 lineto
stroke
newpath
17238 31912.6 moveto
17238 31762.7 lineto
stroke
newpath
17538 31912.6 moveto
17538 31762.7 lineto
stroke
newpath
18700.3 30825.3 moveto
18662.8 30862.8 lineto
18587.9 30975.3 lineto
18550.4 31050.3 lineto
18512.9 31162.7 lineto
18475.4 31350.2 lineto
18475.4 31500.2 lineto
18512.9 31687.7 lineto
18550.4 31800.2 lineto
18587.9 31875.1 lineto
18662.8 31987.6 lineto
18700.3 32025.1 lineto
stroke
newpath
19150.3 31912.6 moveto
19225.3 31912.6 lineto
19300.3 31875.1 lineto
19337.8 31837.7 lineto
19375.3 31762.7 lineto
19412.8 31612.7 lineto
19412.8 31425.2 lineto
19375.3 31275.2 lineto
19337.8 31200.2 lineto
19300.3 31162.7 lineto
19225.3 31125.2 lineto
19150.3 31125.2 lineto
19075.3 31162.7 lineto
19037.8 31200.2 lineto
19000.3 31275.2 lineto
18962.8 31425.2 lineto
18962.8 31612.7 lineto
19000.3 31762.7 lineto
19037.8 31837.7 lineto
19075.3 31875.1 lineto
19150.3 31912.6 lineto
stroke
newpath
20350.1 31125.2 moveto
20350.1 31912.6 lineto
stroke
newpath
20687.6 31125.2 moveto
20687.6 31537.7 lineto
20650.1 31612.7 lineto
20575.1 31650.2 lineto
20462.6 31650.2 lineto
20387.6 31612.7 lineto
20350.1 31575.2 lineto
stroke
newpath
21175 31125.2 moveto
21100 31162.7 lineto
21062.5 31200.2 lineto
21025 31275.2 lineto
21025 31500.2 lineto
21062.5 31575.2 lineto
21100 31612.7 lineto
21175 31650.2 lineto
21287.5 31650.2 lineto
21362.5 31612.7 lineto
21400 31575.2 lineto
21437.5 31500.2 lineto
21437.5 31275.2 lineto
21400 31200.2 lineto
21362.5 31162.7 lineto
21287.5 31125.2 lineto
21175 31125.2 lineto
stroke
newpath
21887.4 31125.2 moveto
21812.5 31162.7 lineto
21775 31237.7 lineto
21775 31912.6 lineto
stroke
newpath
22487.4 31162.7 moveto
22412.4 31125.2 lineto
22262.4 31125.2 lineto
22187.4 31162.7 lineto
22149.9 31237.7 lineto
22149.9 31537.7 lineto
22187.4 31612.7 lineto
22262.4 31650.2 lineto
22412.4 31650.2 lineto
22487.4 31612.7 lineto
22524.9 31537.7 lineto
22524.9 31462.7 lineto
22149.9 31387.7 lineto
stroke
newpath
22824.8 31162.7 moveto
22899.8 31125.2 lineto
23049.8 31125.2 lineto
23124.8 31162.7 lineto
23162.3 31237.7 lineto
23162.3 31275.2 lineto
23124.8 31350.2 lineto
23049.8 31387.7 lineto
22937.3 31387.7 lineto
22862.3 31425.2 lineto
22824.8 31500.2 lineto
22824.8 31537.7 lineto
22862.3 31612.7 lineto
22937.3 31650.2 lineto
23049.8 31650.2 lineto
23124.8 31612.7 lineto
stroke
newpath
24099.7 31425.2 moveto
24699.6 31425.2 lineto
stroke
newpath
24399.6 31125.2 moveto
24399.6 31725.2 lineto
stroke
newpath
25637 31837.7 moveto
25674.5 31875.1 lineto
25749.5 31912.6 lineto
25936.9 31912.6 lineto
26011.9 31875.1 lineto
26049.4 31837.7 lineto
26086.9 31762.7 lineto
26086.9 31687.7 lineto
26049.4 31575.2 lineto
25599.5 31125.2 lineto
26086.9 31125.2 lineto
stroke
newpath
26986.8 31162.7 moveto
27061.8 31125.2 lineto
27211.8 31125.2 lineto
27286.8 31162.7 lineto
27324.3 31237.7 lineto
27324.3 31275.2 lineto
27286.8 31350.2 lineto
27211.8 31387.7 lineto
27099.3 31387.7 lineto
27024.3 31425.2 lineto
26986.8 31500.2 lineto
26986.8 31537.7 lineto
27024.3 31612.7 lineto
27099.3 31650.2 lineto
27211.8 31650.2 lineto
27286.8 31612.7 lineto
stroke
newpath
27774.2 31125.2 moveto
27699.2 31162.7 lineto
27661.7 31237.7 lineto
27661.7 31912.6 lineto
stroke
newpath
28186.7 31125.2 moveto
28111.7 31162.7 lineto
28074.2 31200.2 lineto
28036.7 31275.2 lineto
28036.7 31500.2 lineto
28074.2 31575.2 lineto
28111.7 31612.7 lineto
28186.7 31650.2 lineto
28299.1 31650.2 lineto
28374.1 31612.7 lineto
28411.6 31575.2 lineto
28449.1 31500.2 lineto
28449.1 31275.2 lineto
28411.6 31200.2 lineto
28374.1 31162.7 lineto
28299.1 31125.2 lineto
28186.7 31125.2 lineto
stroke
newpath
28674.1 31650.2 moveto
28974.1 31650.2 lineto
stroke
newpath
28786.6 31912.6 moveto
28786.6 31237.7 lineto
28824.1 31162.7 lineto
28899.1 31125.2 lineto
28974.1 31125.2 lineto
stroke
newpath
29199 31162.7 moveto
29274 31125.2 lineto
29424 31125.2 lineto
29499 31162.7 lineto
29536.5 31237.7 lineto
29536.5 31275.2 lineto
29499 31350.2 lineto
29424 31387.7 lineto
29311.5 31387.7 lineto
29236.5 31425.2 lineto
29199 31500.2 lineto
29199 31537.7 lineto
29236.5 31612.7 lineto
29311.5 31650.2 lineto
29424 31650.2 lineto
29499 31612.7 lineto
stroke
newpath
29799 30825.3 moveto
29836.4 30862.8 lineto
29911.4 30975.3 lineto
29948.9 31050.3 lineto
29986.4 31162.7 lineto
30023.9 31350.2 lineto
30023.9 31500.2 lineto
29986.4 31687.7 lineto
29948.9 31800.2 lineto
29911.4 31875.1 lineto
29836.4 31987.6 lineto
29799 32025.1 lineto
stroke
67.4422 setlinewidth
newpath
4300.51 30779.3 moveto
4300.51 30104.9 lineto
stroke
newpath
3963.3 30442.1 moveto
4637.72 30442.1 lineto
stroke
168.605 setlinewidth
78.7404 setlinewidth
0 0 0 setrgbcolor
0 0 0 setrgbcolor
newpath
5801.95 30873.3 moveto
5876.94 30873.3 lineto
5951.93 30835.8 lineto
5989.43 30798.3 lineto
6026.92 30723.3 lineto
6064.42 30573.3 lineto
6064.42 30385.8 lineto
6026.92 30235.9 lineto
5989.43 30160.9 lineto
5951.93 30123.4 lineto
5876.94 30085.9 lineto
5801.95 30085.9 lineto
5726.96 30123.4 lineto
5689.47 30160.9 lineto
5651.97 30235.9 lineto
5614.47 30385.8 lineto
5614.47 30573.3 lineto
5651.97 30723.3 lineto
5689.47 30798.3 lineto
5726.96 30835.8 lineto
5801.95 30873.3 lineto
stroke
newpath
6401.88 30160.9 moveto
6439.37 30123.4 lineto
6401.88 30085.9 lineto
6364.38 30123.4 lineto
6401.88 30160.9 lineto
6401.88 30085.9 lineto
stroke
newpath
6889.32 30535.8 moveto
6814.32 30573.3 lineto
6776.83 30610.8 lineto
6739.33 30685.8 lineto
6739.33 30723.3 lineto
6776.83 30798.3 lineto
6814.32 30835.8 lineto
6889.32 30873.3 lineto
7039.3 30873.3 lineto
7114.29 30835.8 lineto
7151.78 30798.3 lineto
7189.28 30723.3 lineto
7189.28 30685.8 lineto
7151.78 30610.8 lineto
7114.29 30573.3 lineto
7039.3 30535.8 lineto
6889.32 30535.8 lineto
6814.32 30498.3 lineto
6776.83 30460.8 lineto
6739.33 30385.8 lineto
6739.33 30235.9 lineto
6776.83 30160.9 lineto
6814.32 30123.4 lineto
6889.32 30085.9 lineto
7039.3 30085.9 lineto
7114.29 30123.4 lineto
7151.78 30160.9 lineto
7189.28 30235.9 lineto
7189.28 30385.8 lineto
7151.78 30460.8 lineto
7114.29 30498.3 lineto
7039.3 30535.8 lineto
stroke
newpath
7676.72 30873.3 moveto
7751.71 30873.3 lineto
7826.7 30835.8 lineto
7864.19 30798.3 lineto
7901.69 30723.3 lineto
7939.18 30573.3 lineto
7939.18 30385.8 lineto
7901.69 30235.9 lineto
7864.19 30160.9 lineto
7826.7 30123.4 lineto
7751.71 30085.9 lineto
7676.72 30085.9 lineto
7601.73 30123.4 lineto
7564.23 30160.9 lineto
7526.74 30235.9 lineto
7489.24 30385.8 lineto
7489.24 30573.3 lineto
7526.74 30723.3 lineto
7564.23 30798.3 lineto
7601.73 30835.8 lineto
7676.72 30873.3 lineto
stroke
newpath
8426.62 30873.3 moveto
8501.61 30873.3 lineto
8576.6 30835.8 lineto
8614.1 30798.3 lineto
8651.59 30723.3 lineto
8689.09 30573.3 lineto
8689.09 30385.8 lineto
8651.59 30235.9 lineto
8614.1 30160.9 lineto
8576.6 30123.4 lineto
8501.61 30085.9 lineto
8426.62 30085.9 lineto
8351.63 30123.4 lineto
8314.14 30160.9 lineto
8276.64 30235.9 lineto
8239.15 30385.8 lineto
8239.15 30573.3 lineto
8276.64 30723.3 lineto
8314.14 30798.3 lineto
8351.63 30835.8 lineto
8426.62 30873.3 lineto
stroke
newpath
9026.55 30085.9 moveto
9026.55 30610.8 lineto
stroke
newpath
9026.55 30535.8 moveto
9064.04 30573.3 lineto
9139.03 30610.8 lineto
9251.52 30610.8 lineto
9326.51 30573.3 lineto
9364.01 30498.3 lineto
9364.01 30085.9 lineto
stroke
newpath
9364.01 30498.3 moveto
9401.5 30573.3 lineto
9476.49 30610.8 lineto
9588.98 30610.8 lineto
9663.97 30573.3 lineto
9701.46 30498.3 lineto
9701.46 30085.9 lineto
stroke
newpath
10076.4 30085.9 moveto
10076.4 30610.8 lineto
stroke
newpath
10076.4 30535.8 moveto
10113.9 30573.3 lineto
10188.9 30610.8 lineto
10301.4 30610.8 lineto
10376.4 30573.3 lineto
10413.9 30498.3 lineto
10413.9 30085.9 lineto
stroke
newpath
10413.9 30498.3 moveto
10451.4 30573.3 lineto
10526.4 30610.8 lineto
10638.8 30610.8 lineto
10713.8 30573.3 lineto
10751.3 30498.3 lineto
10751.3 30085.9 lineto
stroke
newpath
12288.6 30910.8 moveto
11613.7 29898.4 lineto
stroke
newpath
13301 30873.3 moveto
13376 30873.3 lineto
13451 30835.8 lineto
13488.5 30798.3 lineto
13526 30723.3 lineto
13563.5 30573.3 lineto
13563.5 30385.8 lineto
13526 30235.9 lineto
13488.5 30160.9 lineto
13451 30123.4 lineto
13376 30085.9 lineto
13301 30085.9 lineto
13226 30123.4 lineto
13188.5 30160.9 lineto
13151 30235.9 lineto
13113.5 30385.8 lineto
13113.5 30573.3 lineto
13151 30723.3 lineto
13188.5 30798.3 lineto
13226 30835.8 lineto
13301 30873.3 lineto
stroke
newpath
13900.9 30160.9 moveto
13938.4 30123.4 lineto
13900.9 30085.9 lineto
13863.4 30123.4 lineto
13900.9 30160.9 lineto
13900.9 30085.9 lineto
stroke
newpath
14425.9 30873.3 moveto
14500.9 30873.3 lineto
14575.9 30835.8 lineto
14613.4 30798.3 lineto
14650.8 30723.3 lineto
14688.3 30573.3 lineto
14688.3 30385.8 lineto
14650.8 30235.9 lineto
14613.4 30160.9 lineto
14575.9 30123.4 lineto
14500.9 30085.9 lineto
14425.9 30085.9 lineto
14350.9 30123.4 lineto
14313.4 30160.9 lineto
14275.9 30235.9 lineto
14238.4 30385.8 lineto
14238.4 30573.3 lineto
14275.9 30723.3 lineto
14313.4 30798.3 lineto
14350.9 30835.8 lineto
14425.9 30873.3 lineto
stroke
newpath
14950.8 30873.3 moveto
15438.2 30873.3 lineto
15175.8 30573.3 lineto
15288.3 30573.3 lineto
15363.3 30535.8 lineto
15400.8 30498.3 lineto
15438.2 30423.3 lineto
15438.2 30235.9 lineto
15400.8 30160.9 lineto
15363.3 30123.4 lineto
15288.3 30085.9 lineto
15063.3 30085.9 lineto
14988.3 30123.4 lineto
14950.8 30160.9 lineto
stroke
newpath
16188.2 30085.9 moveto
15738.2 30085.9 lineto
stroke
newpath
15963.2 30085.9 moveto
15963.2 30873.3 lineto
15888.2 30760.8 lineto
15813.2 30685.8 lineto
15738.2 30648.3 lineto
stroke
newpath
16900.6 30873.3 moveto
16525.6 30873.3 lineto
16488.1 30498.3 lineto
16525.6 30535.8 lineto
16600.6 30573.3 lineto
16788.1 30573.3 lineto
16863.1 30535.8 lineto
16900.6 30498.3 lineto
16938.1 30423.3 lineto
16938.1 30235.9 lineto
16900.6 30160.9 lineto
16863.1 30123.4 lineto
16788.1 30085.9 lineto
16600.6 30085.9 lineto
16525.6 30123.4 lineto
16488.1 30160.9 lineto
stroke
newpath
17238 30873.3 moveto
17238 30723.3 lineto
stroke
newpath
17538 30873.3 moveto
17538 30723.3 lineto
stroke
newpath
18700.3 29785.9 moveto
18662.8 29823.4 lineto
18587.9 29935.9 lineto
18550.4 30010.9 lineto
18512.9 30123.4 lineto
18475.4 30310.8 lineto
18475.4 30460.8 lineto
18512.9 30648.3 lineto
18550.4 30760.8 lineto
18587.9 30835.8 lineto
18662.8 30948.3 lineto
18700.3 30985.8 lineto
stroke
newpath
19375.3 30873.3 moveto
19000.3 30873.3 lineto
18962.8 30498.3 lineto
19000.3 30535.8 lineto
19075.3 30573.3 lineto
19262.8 30573.3 lineto
19337.8 30535.8 lineto
19375.3 30498.3 lineto
19412.8 30423.3 lineto
19412.8 30235.9 lineto
19375.3 30160.9 lineto
19337.8 30123.4 lineto
19262.8 30085.9 lineto
19075.3 30085.9 lineto
19000.3 30123.4 lineto
18962.8 30160.9 lineto
stroke
newpath
20350.1 30085.9 moveto
20350.1 30873.3 lineto
stroke
newpath
20687.6 30085.9 moveto
20687.6 30498.3 lineto
20650.1 30573.3 lineto
20575.1 30610.8 lineto
20462.6 30610.8 lineto
20387.6 30573.3 lineto
20350.1 30535.8 lineto
stroke
newpath
21175 30085.9 moveto
21100 30123.4 lineto
21062.5 30160.9 lineto
21025 30235.9 lineto
21025 30460.8 lineto
21062.5 30535.8 lineto
21100 30573.3 lineto
21175 30610.8 lineto
21287.5 30610.8 lineto
21362.5 30573.3 lineto
21400 30535.8 lineto
21437.5 30460.8 lineto
21437.5 30235.9 lineto
21400 30160.9 lineto
21362.5 30123.4 lineto
21287.5 30085.9 lineto
21175 30085.9 lineto
stroke
newpath
21887.4 30085.9 moveto
21812.5 30123.4 lineto
21775 30198.4 lineto
21775 30873.3 lineto
stroke
newpath
22487.4 30123.4 moveto
22412.4 30085.9 lineto
22262.4 30085.9 lineto
22187.4 30123.4 lineto
22149.9 30198.4 lineto
22149.9 30498.3 lineto
22187.4 30573.3 lineto
22262.4 30610.8 lineto
22412.4 30610.8 lineto
22487.4 30573.3 lineto
22524.9 30498.3 lineto
22524.9 30423.3 lineto
22149.9 30348.3 lineto
stroke
newpath
22824.8 30123.4 moveto
22899.8 30085.9 lineto
23049.8 30085.9 lineto
23124.8 30123.4 lineto
23162.3 30198.4 lineto
23162.3 30235.9 lineto
23124.8 30310.8 lineto
23049.8 30348.3 lineto
22937.3 30348.3 lineto
22862.3 30385.8 lineto
22824.8 30460.8 lineto
22824.8 30498.3 lineto
22862.3 30573.3 lineto
22937.3 30610.8 lineto
23049.8 30610.8 lineto
23124.8 30573.3 lineto
stroke
newpath
23424.7 29785.9 moveto
23462.2 29823.4 lineto
23537.2 29935.9 lineto
23574.7 30010.9 lineto
23612.2 30123.4 lineto
23649.7 30310.8 lineto
23649.7 30460.8 lineto
23612.2 30648.3 lineto
23574.7 30760.8 lineto
23537.2 30835.8 lineto
23462.2 30948.3 lineto
23424.7 30985.8 lineto
stroke
67.4422 setlinewidth
newpath
4538.96 29056.8 moveto
4538.96 29533.7 lineto
4062.06 29533.7 lineto
4062.06 29056.8 lineto
4538.96 29056.8 lineto
poly0
168.605 setlinewidth
78.7404 setlinewidth
0 0 0 setrgbcolor
0 0 0 setrgbcolor
newpath
5801.95 29726.4 moveto
5876.94 29726.4 lineto
5951.93 29688.9 lineto
5989.43 29651.4 lineto
6026.92 29576.4 lineto
6064.42 29426.4 lineto
6064.42 29239 lineto
6026.92 29089 lineto
5989.43 29014 lineto
5951.93 28976.5 lineto
5876.94 28939 lineto
5801.95 28939 lineto
5726.96 28976.5 lineto
5689.47 29014 lineto
5651.97 29089 lineto
5614.47 29239 lineto
5614.47 29426.4 lineto
5651.97 29576.4 lineto
5689.47 29651.4 lineto
5726.96 29688.9 lineto
5801.95 29726.4 lineto
stroke
newpath
6401.88 29014 moveto
6439.37 28976.5 lineto
6401.88 28939 lineto
6364.38 28976.5 lineto
6401.88 29014 lineto
6401.88 28939 lineto
stroke
newpath
6889.32 29389 moveto
6814.32 29426.4 lineto
6776.83 29463.9 lineto
6739.33 29538.9 lineto
6739.33 29576.4 lineto
6776.83 29651.4 lineto
6814.32 29688.9 lineto
6889.32 29726.4 lineto
7039.3 29726.4 lineto
7114.29 29688.9 lineto
7151.78 29651.4 lineto
7189.28 29576.4 lineto
7189.28 29538.9 lineto
7151.78 29463.9 lineto
7114.29 29426.4 lineto
7039.3 29389 lineto
6889.32 29389 lineto
6814.32 29351.5 lineto
6776.83 29314 lineto
6739.33 29239 lineto
6739.33 29089 lineto
6776.83 29014 lineto
6814.32 28976.5 lineto
6889.32 28939 lineto
7039.3 28939 lineto
7114.29 28976.5 lineto
7151.78 29014 lineto
7189.28 29089 lineto
7189.28 29239 lineto
7151.78 29314 lineto
7114.29 29351.5 lineto
7039.3 29389 lineto
stroke
newpath
7676.72 29726.4 moveto
7751.71 29726.4 lineto
7826.7 29688.9 lineto
7864.19 29651.4 lineto
7901.69 29576.4 lineto
7939.18 29426.4 lineto
7939.18 29239 lineto
7901.69 29089 lineto
7864.19 29014 lineto
7826.7 28976.5 lineto
7751.71 28939 lineto
7676.72 28939 lineto
7601.73 28976.5 lineto
7564.23 29014 lineto
7526.74 29089 lineto
7489.24 29239 lineto
7489.24 29426.4 lineto
7526.74 29576.4 lineto
7564.23 29651.4 lineto
7601.73 29688.9 lineto
7676.72 29726.4 lineto
stroke
newpath
8426.62 29726.4 moveto
8501.61 29726.4 lineto
8576.6 29688.9 lineto
8614.1 29651.4 lineto
8651.59 29576.4 lineto
8689.09 29426.4 lineto
8689.09 29239 lineto
8651.59 29089 lineto
8614.1 29014 lineto
8576.6 28976.5 lineto
8501.61 28939 lineto
8426.62 28939 lineto
8351.63 28976.5 lineto
8314.14 29014 lineto
8276.64 29089 lineto
8239.15 29239 lineto
8239.15 29426.4 lineto
8276.64 29576.4 lineto
8314.14 29651.4 lineto
8351.63 29688.9 lineto
8426.62 29726.4 lineto
stroke
newpath
9026.55 28939 moveto
9026.55 29463.9 lineto
stroke
newpath
9026.55 29389 moveto
9064.04 29426.4 lineto
9139.03 29463.9 lineto
9251.52 29463.9 lineto
9326.51 29426.4 lineto
9364.01 29351.5 lineto
9364.01 28939 lineto
stroke
newpath
9364.01 29351.5 moveto
9401.5 29426.4 lineto
9476.49 29463.9 lineto
9588.98 29463.9 lineto
9663.97 29426.4 lineto
9701.46 29351.5 lineto
9701.46 28939 lineto
stroke
newpath
10076.4 28939 moveto
10076.4 29463.9 lineto
stroke
newpath
10076.4 29389 moveto
10113.9 29426.4 lineto
10188.9 29463.9 lineto
10301.4 29463.9 lineto
10376.4 29426.4 lineto
10413.9 29351.5 lineto
10413.9 28939 lineto
stroke
newpath
10413.9 29351.5 moveto
10451.4 29426.4 lineto
10526.4 29463.9 lineto
10638.8 29463.9 lineto
10713.8 29426.4 lineto
10751.3 29351.5 lineto
10751.3 28939 lineto
stroke
newpath
12288.6 29763.9 moveto
11613.7 28751.5 lineto
stroke
newpath
13301 29726.4 moveto
13376 29726.4 lineto
13451 29688.9 lineto
13488.5 29651.4 lineto
13526 29576.4 lineto
13563.5 29426.4 lineto
13563.5 29239 lineto
13526 29089 lineto
13488.5 29014 lineto
13451 28976.5 lineto
13376 28939 lineto
13301 28939 lineto
13226 28976.5 lineto
13188.5 29014 lineto
13151 29089 lineto
13113.5 29239 lineto
13113.5 29426.4 lineto
13151 29576.4 lineto
13188.5 29651.4 lineto
13226 29688.9 lineto
13301 29726.4 lineto
stroke
newpath
13900.9 29014 moveto
13938.4 28976.5 lineto
13900.9 28939 lineto
13863.4 28976.5 lineto
13900.9 29014 lineto
13900.9 28939 lineto
stroke
newpath
14425.9 29726.4 moveto
14500.9 29726.4 lineto
14575.9 29688.9 lineto
14613.4 29651.4 lineto
14650.8 29576.4 lineto
14688.3 29426.4 lineto
14688.3 29239 lineto
14650.8 29089 lineto
14613.4 29014 lineto
14575.9 28976.5 lineto
14500.9 28939 lineto
14425.9 28939 lineto
14350.9 28976.5 lineto
14313.4 29014 lineto
14275.9 29089 lineto
14238.4 29239 lineto
14238.4 29426.4 lineto
14275.9 29576.4 lineto
14313.4 29651.4 lineto
14350.9 29688.9 lineto
14425.9 29726.4 lineto
stroke
newpath
14950.8 29726.4 moveto
15438.2 29726.4 lineto
15175.8 29426.4 lineto
15288.3 29426.4 lineto
15363.3 29389 lineto
15400.8 29351.5 lineto
15438.2 29276.5 lineto
15438.2 29089 lineto
15400.8 29014 lineto
15363.3 28976.5 lineto
15288.3 28939 lineto
15063.3 28939 lineto
14988.3 28976.5 lineto
14950.8 29014 lineto
stroke
newpath
16188.2 28939 moveto
15738.2 28939 lineto
stroke
newpath
15963.2 28939 moveto
15963.2 29726.4 lineto
15888.2 29613.9 lineto
15813.2 29538.9 lineto
15738.2 29501.4 lineto
stroke
newpath
16900.6 29726.4 moveto
16525.6 29726.4 lineto
16488.1 29351.5 lineto
16525.6 29389 lineto
16600.6 29426.4 lineto
16788.1 29426.4 lineto
16863.1 29389 lineto
16900.6 29351.5 lineto
16938.1 29276.5 lineto
16938.1 29089 lineto
16900.6 29014 lineto
16863.1 28976.5 lineto
16788.1 28939 lineto
16600.6 28939 lineto
16525.6 28976.5 lineto
16488.1 29014 lineto
stroke
newpath
17238 29726.4 moveto
17238 29576.4 lineto
stroke
newpath
17538 29726.4 moveto
17538 29576.4 lineto
stroke
newpath
18700.3 28639 moveto
18662.8 28676.5 lineto
18587.9 28789 lineto
18550.4 28864 lineto
18512.9 28976.5 lineto
18475.4 29164 lineto
18475.4 29314 lineto
18512.9 29501.4 lineto
18550.4 29613.9 lineto
18587.9 29688.9 lineto
18662.8 29801.4 lineto
18700.3 29838.9 lineto
stroke
newpath
19375.3 29726.4 moveto
19000.3 29726.4 lineto
18962.8 29351.5 lineto
19000.3 29389 lineto
19075.3 29426.4 lineto
19262.8 29426.4 lineto
19337.8 29389 lineto
19375.3 29351.5 lineto
19412.8 29276.5 lineto
19412.8 29089 lineto
19375.3 29014 lineto
19337.8 28976.5 lineto
19262.8 28939 lineto
19075.3 28939 lineto
19000.3 28976.5 lineto
18962.8 29014 lineto
stroke
newpath
20162.7 28939 moveto
19712.7 28939 lineto
stroke
newpath
19937.7 28939 moveto
19937.7 29726.4 lineto
19862.7 29613.9 lineto
19787.7 29538.9 lineto
19712.7 29501.4 lineto
stroke
newpath
21100 28939 moveto
21100 29726.4 lineto
stroke
newpath
21437.5 28939 moveto
21437.5 29351.5 lineto
21400 29426.4 lineto
21325 29463.9 lineto
21212.5 29463.9 lineto
21137.5 29426.4 lineto
21100 29389 lineto
stroke
newpath
21924.9 28939 moveto
21849.9 28976.5 lineto
21812.5 29014 lineto
21775 29089 lineto
21775 29314 lineto
21812.5 29389 lineto
21849.9 29426.4 lineto
21924.9 29463.9 lineto
22037.4 29463.9 lineto
22112.4 29426.4 lineto
22149.9 29389 lineto
22187.4 29314 lineto
22187.4 29089 lineto
22149.9 29014 lineto
22112.4 28976.5 lineto
22037.4 28939 lineto
21924.9 28939 lineto
stroke
newpath
22637.3 28939 moveto
22562.4 28976.5 lineto
22524.9 29051.5 lineto
22524.9 29726.4 lineto
stroke
newpath
23237.3 28976.5 moveto
23162.3 28939 lineto
23012.3 28939 lineto
22937.3 28976.5 lineto
22899.8 29051.5 lineto
22899.8 29351.5 lineto
22937.3 29426.4 lineto
23012.3 29463.9 lineto
23162.3 29463.9 lineto
23237.3 29426.4 lineto
23274.8 29351.5 lineto
23274.8 29276.5 lineto
22899.8 29201.5 lineto
stroke
newpath
23574.7 28976.5 moveto
23649.7 28939 lineto
23799.7 28939 lineto
23874.7 28976.5 lineto
23912.2 29051.5 lineto
23912.2 29089 lineto
23874.7 29164 lineto
23799.7 29201.5 lineto
23687.2 29201.5 lineto
23612.2 29239 lineto
23574.7 29314 lineto
23574.7 29351.5 lineto
23612.2 29426.4 lineto
23687.2 29463.9 lineto
23799.7 29463.9 lineto
23874.7 29426.4 lineto
stroke
newpath
24174.7 28639 moveto
24212.2 28676.5 lineto
24287.1 28789 lineto
24324.6 28864 lineto
24362.1 28976.5 lineto
24399.6 29164 lineto
24399.6 29314 lineto
24362.1 29501.4 lineto
24324.6 29613.9 lineto
24287.1 29688.9 lineto
24212.2 29801.4 lineto
24174.7 29838.9 lineto
stroke
71.6573 setlinewidth
newpath
4279.43 27790.1 moveto
4637.72 28148.4 lineto
4279.43 28506.6 lineto
3921.15 28148.4 lineto
4279.43 27790.1 lineto
poly0
168.605 setlinewidth
78.7404 setlinewidth
0 0 0 setrgbcolor
0 0 0 setrgbcolor
newpath
5801.95 28579.5 moveto
5876.94 28579.5 lineto
5951.93 28542.1 lineto
5989.43 28504.6 lineto
6026.92 28429.6 lineto
6064.42 28279.6 lineto
6064.42 28092.1 lineto
6026.92 27942.1 lineto
5989.43 27867.1 lineto
5951.93 27829.6 lineto
5876.94 27792.1 lineto
5801.95 27792.1 lineto
5726.96 27829.6 lineto
5689.47 27867.1 lineto
5651.97 27942.1 lineto
5614.47 28092.1 lineto
5614.47 28279.6 lineto
5651.97 28429.6 lineto
5689.47 28504.6 lineto
5726.96 28542.1 lineto
5801.95 28579.5 lineto
stroke
newpath
6401.88 27867.1 moveto
6439.37 27829.6 lineto
6401.88 27792.1 lineto
6364.38 27829.6 lineto
6401.88 27867.1 lineto
6401.88 27792.1 lineto
stroke
newpath
6889.32 28242.1 moveto
6814.32 28279.6 lineto
6776.83 28317.1 lineto
6739.33 28392.1 lineto
6739.33 28429.6 lineto
6776.83 28504.6 lineto
6814.32 28542.1 lineto
6889.32 28579.5 lineto
7039.3 28579.5 lineto
7114.29 28542.1 lineto
7151.78 28504.6 lineto
7189.28 28429.6 lineto
7189.28 28392.1 lineto
7151.78 28317.1 lineto
7114.29 28279.6 lineto
7039.3 28242.1 lineto
6889.32 28242.1 lineto
6814.32 28204.6 lineto
6776.83 28167.1 lineto
6739.33 28092.1 lineto
6739.33 27942.1 lineto
6776.83 27867.1 lineto
6814.32 27829.6 lineto
6889.32 27792.1 lineto
7039.3 27792.1 lineto
7114.29 27829.6 lineto
7151.78 27867.1 lineto
7189.28 27942.1 lineto
7189.28 28092.1 lineto
7151.78 28167.1 lineto
7114.29 28204.6 lineto
7039.3 28242.1 lineto
stroke
newpath
7901.69 28579.5 moveto
7526.74 28579.5 lineto
7489.24 28204.6 lineto
7526.74 28242.1 lineto
7601.73 28279.6 lineto
7789.2 28279.6 lineto
7864.19 28242.1 lineto
7901.69 28204.6 lineto
7939.18 28129.6 lineto
7939.18 27942.1 lineto
7901.69 27867.1 lineto
7864.19 27829.6 lineto
7789.2 27792.1 lineto
7601.73 27792.1 lineto
7526.74 27829.6 lineto
7489.24 27867.1 lineto
stroke
newpath
8426.62 28579.5 moveto
8501.61 28579.5 lineto
8576.6 28542.1 lineto
8614.1 28504.6 lineto
8651.59 28429.6 lineto
8689.09 28279.6 lineto
8689.09 28092.1 lineto
8651.59 27942.1 lineto
8614.1 27867.1 lineto
8576.6 27829.6 lineto
8501.61 27792.1 lineto
8426.62 27792.1 lineto
8351.63 27829.6 lineto
8314.14 27867.1 lineto
8276.64 27942.1 lineto
8239.15 28092.1 lineto
8239.15 28279.6 lineto
8276.64 28429.6 lineto
8314.14 28504.6 lineto
8351.63 28542.1 lineto
8426.62 28579.5 lineto
stroke
newpath
9026.55 27792.1 moveto
9026.55 28317.1 lineto
stroke
newpath
9026.55 28242.1 moveto
9064.04 28279.6 lineto
9139.03 28317.1 lineto
9251.52 28317.1 lineto
9326.51 28279.6 lineto
9364.01 28204.6 lineto
9364.01 27792.1 lineto
stroke
newpath
9364.01 28204.6 moveto
9401.5 28279.6 lineto
9476.49 28317.1 lineto
9588.98 28317.1 lineto
9663.97 28279.6 lineto
9701.46 28204.6 lineto
9701.46 27792.1 lineto
stroke
newpath
10076.4 27792.1 moveto
10076.4 28317.1 lineto
stroke
newpath
10076.4 28242.1 moveto
10113.9 28279.6 lineto
10188.9 28317.1 lineto
10301.4 28317.1 lineto
10376.4 28279.6 lineto
10413.9 28204.6 lineto
10413.9 27792.1 lineto
stroke
newpath
10413.9 28204.6 moveto
10451.4 28279.6 lineto
10526.4 28317.1 lineto
10638.8 28317.1 lineto
10713.8 28279.6 lineto
10751.3 28204.6 lineto
10751.3 27792.1 lineto
stroke
newpath
12288.6 28617 moveto
11613.7 27604.7 lineto
stroke
newpath
13301 28579.5 moveto
13376 28579.5 lineto
13451 28542.1 lineto
13488.5 28504.6 lineto
13526 28429.6 lineto
13563.5 28279.6 lineto
13563.5 28092.1 lineto
13526 27942.1 lineto
13488.5 27867.1 lineto
13451 27829.6 lineto
13376 27792.1 lineto
13301 27792.1 lineto
13226 27829.6 lineto
13188.5 27867.1 lineto
13151 27942.1 lineto
13113.5 28092.1 lineto
13113.5 28279.6 lineto
13151 28429.6 lineto
13188.5 28504.6 lineto
13226 28542.1 lineto
13301 28579.5 lineto
stroke
newpath
13900.9 27867.1 moveto
13938.4 27829.6 lineto
13900.9 27792.1 lineto
13863.4 27829.6 lineto
13900.9 27867.1 lineto
13900.9 27792.1 lineto
stroke
newpath
14425.9 28579.5 moveto
14500.9 28579.5 lineto
14575.9 28542.1 lineto
14613.4 28504.6 lineto
14650.8 28429.6 lineto
14688.3 28279.6 lineto
14688.3 28092.1 lineto
14650.8 27942.1 lineto
14613.4 27867.1 lineto
14575.9 27829.6 lineto
14500.9 27792.1 lineto
14425.9 27792.1 lineto
14350.9 27829.6 lineto
14313.4 27867.1 lineto
14275.9 27942.1 lineto
14238.4 28092.1 lineto
14238.4 28279.6 lineto
14275.9 28429.6 lineto
14313.4 28504.6 lineto
14350.9 28542.1 lineto
14425.9 28579.5 lineto
stroke
newpath
14950.8 28579.5 moveto
15438.2 28579.5 lineto
15175.8 28279.6 lineto
15288.3 28279.6 lineto
15363.3 28242.1 lineto
15400.8 28204.6 lineto
15438.2 28129.6 lineto
15438.2 27942.1 lineto
15400.8 27867.1 lineto
15363.3 27829.6 lineto
15288.3 27792.1 lineto
15063.3 27792.1 lineto
14988.3 27829.6 lineto
14950.8 27867.1 lineto
stroke
newpath
15700.7 28579.5 moveto
16188.2 28579.5 lineto
15925.7 28279.6 lineto
16038.2 28279.6 lineto
16113.2 28242.1 lineto
16150.7 28204.6 lineto
16188.2 28129.6 lineto
16188.2 27942.1 lineto
16150.7 27867.1 lineto
16113.2 27829.6 lineto
16038.2 27792.1 lineto
15813.2 27792.1 lineto
15738.2 27829.6 lineto
15700.7 27867.1 lineto
stroke
newpath
16900.6 28579.5 moveto
16525.6 28579.5 lineto
16488.1 28204.6 lineto
16525.6 28242.1 lineto
16600.6 28279.6 lineto
16788.1 28279.6 lineto
16863.1 28242.1 lineto
16900.6 28204.6 lineto
16938.1 28129.6 lineto
16938.1 27942.1 lineto
16900.6 27867.1 lineto
16863.1 27829.6 lineto
16788.1 27792.1 lineto
16600.6 27792.1 lineto
16525.6 27829.6 lineto
16488.1 27867.1 lineto
stroke
newpath
17238 28579.5 moveto
17238 28429.6 lineto
stroke
newpath
17538 28579.5 moveto
17538 28429.6 lineto
stroke
newpath
18700.3 27492.2 moveto
18662.8 27529.7 lineto
18587.9 27642.2 lineto
18550.4 27717.2 lineto
18512.9 27829.6 lineto
18475.4 28017.1 lineto
18475.4 28167.1 lineto
18512.9 28354.6 lineto
18550.4 28467.1 lineto
18587.9 28542.1 lineto
18662.8 28654.5 lineto
18700.3 28692 lineto
stroke
newpath
18962.8 28504.6 moveto
19000.3 28542.1 lineto
19075.3 28579.5 lineto
19262.8 28579.5 lineto
19337.8 28542.1 lineto
19375.3 28504.6 lineto
19412.8 28429.6 lineto
19412.8 28354.6 lineto
19375.3 28242.1 lineto
18925.3 27792.1 lineto
19412.8 27792.1 lineto
stroke
newpath
20350.1 27792.1 moveto
20350.1 28579.5 lineto
stroke
newpath
20687.6 27792.1 moveto
20687.6 28204.6 lineto
20650.1 28279.6 lineto
20575.1 28317.1 lineto
20462.6 28317.1 lineto
20387.6 28279.6 lineto
20350.1 28242.1 lineto
stroke
newpath
21175 27792.1 moveto
21100 27829.6 lineto
21062.5 27867.1 lineto
21025 27942.1 lineto
21025 28167.1 lineto
21062.5 28242.1 lineto
21100 28279.6 lineto
21175 28317.1 lineto
21287.5 28317.1 lineto
21362.5 28279.6 lineto
21400 28242.1 lineto
21437.5 28167.1 lineto
21437.5 27942.1 lineto
21400 27867.1 lineto
21362.5 27829.6 lineto
21287.5 27792.1 lineto
21175 27792.1 lineto
stroke
newpath
21887.4 27792.1 moveto
21812.5 27829.6 lineto
21775 27904.6 lineto
21775 28579.5 lineto
stroke
newpath
22487.4 27829.6 moveto
22412.4 27792.1 lineto
22262.4 27792.1 lineto
22187.4 27829.6 lineto
22149.9 27904.6 lineto
22149.9 28204.6 lineto
22187.4 28279.6 lineto
22262.4 28317.1 lineto
22412.4 28317.1 lineto
22487.4 28279.6 lineto
22524.9 28204.6 lineto
22524.9 28129.6 lineto
22149.9 28054.6 lineto
stroke
newpath
22824.8 27829.6 moveto
22899.8 27792.1 lineto
23049.8 27792.1 lineto
23124.8 27829.6 lineto
23162.3 27904.6 lineto
23162.3 27942.1 lineto
23124.8 28017.1 lineto
23049.8 28054.6 lineto
22937.3 28054.6 lineto
22862.3 28092.1 lineto
22824.8 28167.1 lineto
22824.8 28204.6 lineto
22862.3 28279.6 lineto
22937.3 28317.1 lineto
23049.8 28317.1 lineto
23124.8 28279.6 lineto
stroke
newpath
23424.7 27492.2 moveto
23462.2 27529.7 lineto
23537.2 27642.2 lineto
23574.7 27717.2 lineto
23612.2 27829.6 lineto
23649.7 28017.1 lineto
23649.7 28167.1 lineto
23612.2 28354.6 lineto
23574.7 28467.1 lineto
23537.2 28542.1 lineto
23462.2 28654.5 lineto
23424.7 28692 lineto
stroke
78.7396 setlinewidth
newpath
3850.32 27353 moveto
4637.72 26565.6 lineto
stroke
newpath
4637.72 27353 moveto
3850.32 26565.6 lineto
stroke
4244.02 26959.3 393.7 cir0
168.605 setlinewidth
78.7404 setlinewidth
0 0 0 setrgbcolor
0 0 0 setrgbcolor
newpath
6064.42 26603.1 moveto
5614.47 26603.1 lineto
stroke
newpath
5839.45 26603.1 moveto
5839.45 27390.5 lineto
5764.46 27278 lineto
5689.47 27203.1 lineto
5614.47 27165.6 lineto
stroke
newpath
6401.88 26678.1 moveto
6439.37 26640.6 lineto
6401.88 26603.1 lineto
6364.38 26640.6 lineto
6401.88 26678.1 lineto
6401.88 26603.1 lineto
stroke
newpath
6926.81 27390.5 moveto
7001.8 27390.5 lineto
7076.79 27353 lineto
7114.29 27315.5 lineto
7151.78 27240.6 lineto
7189.28 27090.6 lineto
7189.28 26903.1 lineto
7151.78 26753.1 lineto
7114.29 26678.1 lineto
7076.79 26640.6 lineto
7001.8 26603.1 lineto
6926.81 26603.1 lineto
6851.82 26640.6 lineto
6814.32 26678.1 lineto
6776.83 26753.1 lineto
6739.33 26903.1 lineto
6739.33 27090.6 lineto
6776.83 27240.6 lineto
6814.32 27315.5 lineto
6851.82 27353 lineto
6926.81 27390.5 lineto
stroke
newpath
7939.18 26603.1 moveto
7489.24 26603.1 lineto
stroke
newpath
7714.21 26603.1 moveto
7714.21 27390.5 lineto
7639.22 27278 lineto
7564.23 27203.1 lineto
7489.24 27165.6 lineto
stroke
newpath
8614.1 27390.5 moveto
8464.12 27390.5 lineto
8389.13 27353 lineto
8351.63 27315.5 lineto
8276.64 27203.1 lineto
8239.15 27053.1 lineto
8239.15 26753.1 lineto
8276.64 26678.1 lineto
8314.14 26640.6 lineto
8389.13 26603.1 lineto
8539.11 26603.1 lineto
8614.1 26640.6 lineto
8651.59 26678.1 lineto
8689.09 26753.1 lineto
8689.09 26940.6 lineto
8651.59 27015.6 lineto
8614.1 27053.1 lineto
8539.11 27090.6 lineto
8389.13 27090.6 lineto
8314.14 27053.1 lineto
8276.64 27015.6 lineto
8239.15 26940.6 lineto
stroke
newpath
9026.55 26603.1 moveto
9026.55 27128.1 lineto
stroke
newpath
9026.55 27053.1 moveto
9064.04 27090.6 lineto
9139.03 27128.1 lineto
9251.52 27128.1 lineto
9326.51 27090.6 lineto
9364.01 27015.6 lineto
9364.01 26603.1 lineto
stroke
newpath
9364.01 27015.6 moveto
9401.5 27090.6 lineto
9476.49 27128.1 lineto
9588.98 27128.1 lineto
9663.97 27090.6 lineto
9701.46 27015.6 lineto
9701.46 26603.1 lineto
stroke
newpath
10076.4 26603.1 moveto
10076.4 27128.1 lineto
stroke
newpath
10076.4 27053.1 moveto
10113.9 27090.6 lineto
10188.9 27128.1 lineto
10301.4 27128.1 lineto
10376.4 27090.6 lineto
10413.9 27015.6 lineto
10413.9 26603.1 lineto
stroke
newpath
10413.9 27015.6 moveto
10451.4 27090.6 lineto
10526.4 27128.1 lineto
10638.8 27128.1 lineto
10713.8 27090.6 lineto
10751.3 27015.6 lineto
10751.3 26603.1 lineto
stroke
newpath
12288.6 27428 moveto
11613.7 26415.7 lineto
stroke
newpath
13301 27390.5 moveto
13376 27390.5 lineto
13451 27353 lineto
13488.5 27315.5 lineto
13526 27240.6 lineto
13563.5 27090.6 lineto
13563.5 26903.1 lineto
13526 26753.1 lineto
13488.5 26678.1 lineto
13451 26640.6 lineto
13376 26603.1 lineto
13301 26603.1 lineto
13226 26640.6 lineto
13188.5 26678.1 lineto
13151 26753.1 lineto
13113.5 26903.1 lineto
13113.5 27090.6 lineto
13151 27240.6 lineto
13188.5 27315.5 lineto
13226 27353 lineto
13301 27390.5 lineto
stroke
newpath
13900.9 26678.1 moveto
13938.4 26640.6 lineto
13900.9 26603.1 lineto
13863.4 26640.6 lineto
13900.9 26678.1 lineto
13900.9 26603.1 lineto
stroke
newpath
14425.9 27390.5 moveto
14500.9 27390.5 lineto
14575.9 27353 lineto
14613.4 27315.5 lineto
14650.8 27240.6 lineto
14688.3 27090.6 lineto
14688.3 26903.1 lineto
14650.8 26753.1 lineto
14613.4 26678.1 lineto
14575.9 26640.6 lineto
14500.9 26603.1 lineto
14425.9 26603.1 lineto
14350.9 26640.6 lineto
14313.4 26678.1 lineto
14275.9 26753.1 lineto
14238.4 26903.1 lineto
14238.4 27090.6 lineto
14275.9 27240.6 lineto
14313.4 27315.5 lineto
14350.9 27353 lineto
14425.9 27390.5 lineto
stroke
newpath
15363.3 27128.1 moveto
15363.3 26603.1 lineto
stroke
newpath
15175.8 27428 moveto
14988.3 26865.6 lineto
15475.7 26865.6 lineto
stroke
newpath
15925.7 27390.5 moveto
16000.7 27390.5 lineto
16075.7 27353 lineto
16113.2 27315.5 lineto
16150.7 27240.6 lineto
16188.2 27090.6 lineto
16188.2 26903.1 lineto
16150.7 26753.1 lineto
16113.2 26678.1 lineto
16075.7 26640.6 lineto
16000.7 26603.1 lineto
15925.7 26603.1 lineto
15850.7 26640.6 lineto
15813.2 26678.1 lineto
15775.7 26753.1 lineto
15738.2 26903.1 lineto
15738.2 27090.6 lineto
15775.7 27240.6 lineto
15813.2 27315.5 lineto
15850.7 27353 lineto
15925.7 27390.5 lineto
stroke
newpath
16675.6 27390.5 moveto
16750.6 27390.5 lineto
16825.6 27353 lineto
16863.1 27315.5 lineto
16900.6 27240.6 lineto
16938.1 27090.6 lineto
16938.1 26903.1 lineto
16900.6 26753.1 lineto
16863.1 26678.1 lineto
16825.6 26640.6 lineto
16750.6 26603.1 lineto
16675.6 26603.1 lineto
16600.6 26640.6 lineto
16563.1 26678.1 lineto
16525.6 26753.1 lineto
16488.1 26903.1 lineto
16488.1 27090.6 lineto
16525.6 27240.6 lineto
16563.1 27315.5 lineto
16600.6 27353 lineto
16675.6 27390.5 lineto
stroke
newpath
17238 27390.5 moveto
17238 27240.6 lineto
stroke
newpath
17538 27390.5 moveto
17538 27240.6 lineto
stroke
newpath
18700.3 26303.2 moveto
18662.8 26340.7 lineto
18587.9 26453.2 lineto
18550.4 26528.1 lineto
18512.9 26640.6 lineto
18475.4 26828.1 lineto
18475.4 26978.1 lineto
18512.9 27165.6 lineto
18550.4 27278 lineto
18587.9 27353 lineto
18662.8 27465.5 lineto
18700.3 27503 lineto
stroke
newpath
18925.3 27390.5 moveto
19450.2 27390.5 lineto
19112.8 26603.1 lineto
stroke
newpath
19712.7 27315.5 moveto
19750.2 27353 lineto
19825.2 27390.5 lineto
20012.7 27390.5 lineto
20087.7 27353 lineto
20125.2 27315.5 lineto
20162.7 27240.6 lineto
20162.7 27165.6 lineto
20125.2 27053.1 lineto
19675.2 26603.1 lineto
20162.7 26603.1 lineto
stroke
newpath
21100 26603.1 moveto
21100 27390.5 lineto
stroke
newpath
21437.5 26603.1 moveto
21437.5 27015.6 lineto
21400 27090.6 lineto
21325 27128.1 lineto
21212.5 27128.1 lineto
21137.5 27090.6 lineto
21100 27053.1 lineto
stroke
newpath
21924.9 26603.1 moveto
21849.9 26640.6 lineto
21812.5 26678.1 lineto
21775 26753.1 lineto
21775 26978.1 lineto
21812.5 27053.1 lineto
21849.9 27090.6 lineto
21924.9 27128.1 lineto
22037.4 27128.1 lineto
22112.4 27090.6 lineto
22149.9 27053.1 lineto
22187.4 26978.1 lineto
22187.4 26753.1 lineto
22149.9 26678.1 lineto
22112.4 26640.6 lineto
22037.4 26603.1 lineto
21924.9 26603.1 lineto
stroke
newpath
22637.3 26603.1 moveto
22562.4 26640.6 lineto
22524.9 26715.6 lineto
22524.9 27390.5 lineto
stroke
newpath
23237.3 26640.6 moveto
23162.3 26603.1 lineto
23012.3 26603.1 lineto
22937.3 26640.6 lineto
22899.8 26715.6 lineto
22899.8 27015.6 lineto
22937.3 27090.6 lineto
23012.3 27128.1 lineto
23162.3 27128.1 lineto
23237.3 27090.6 lineto
23274.8 27015.6 lineto
23274.8 26940.6 lineto
22899.8 26865.6 lineto
stroke
newpath
23574.7 26640.6 moveto
23649.7 26603.1 lineto
23799.7 26603.1 lineto
23874.7 26640.6 lineto
23912.2 26715.6 lineto
23912.2 26753.1 lineto
23874.7 26828.1 lineto
23799.7 26865.6 lineto
23687.2 26865.6 lineto
23612.2 26903.1 lineto
23574.7 26978.1 lineto
23574.7 27015.6 lineto
23612.2 27090.6 lineto
23687.2 27128.1 lineto
23799.7 27128.1 lineto
23874.7 27090.6 lineto
stroke
newpath
24174.7 26303.2 moveto
24212.2 26340.7 lineto
24287.1 26453.2 lineto
24324.6 26528.1 lineto
24362.1 26640.6 lineto
24399.6 26828.1 lineto
24399.6 26978.1 lineto
24362.1 27165.6 lineto
24324.6 27278 lineto
24287.1 27353 lineto
24212.2 27465.5 lineto
24174.7 27503 lineto
stroke
78.7396 setlinewidth
newpath
3850.32 26093.2 moveto
4637.72 25305.8 lineto
stroke
newpath
4637.72 26093.2 moveto
3850.32 25305.8 lineto
stroke
newpath
4244.02 26093.2 moveto
4244.02 25305.8 lineto
stroke
newpath
3850.32 25699.5 moveto
4637.72 25699.5 lineto
stroke
168.605 setlinewidth
78.7404 setlinewidth
0 0 0 setrgbcolor
0 0 0 setrgbcolor
newpath
6064.42 25343.3 moveto
5614.47 25343.3 lineto
stroke
newpath
5839.45 25343.3 moveto
5839.45 26130.7 lineto
5764.46 26018.2 lineto
5689.47 25943.2 lineto
5614.47 25905.7 lineto
stroke
newpath
6401.88 25418.3 moveto
6439.37 25380.8 lineto
6401.88 25343.3 lineto
6364.38 25380.8 lineto
6401.88 25418.3 lineto
6401.88 25343.3 lineto
stroke
newpath
7151.78 26130.7 moveto
6776.83 26130.7 lineto
6739.33 25755.7 lineto
6776.83 25793.2 lineto
6851.82 25830.7 lineto
7039.3 25830.7 lineto
7114.29 25793.2 lineto
7151.78 25755.7 lineto
7189.28 25680.7 lineto
7189.28 25493.3 lineto
7151.78 25418.3 lineto
7114.29 25380.8 lineto
7039.3 25343.3 lineto
6851.82 25343.3 lineto
6776.83 25380.8 lineto
6739.33 25418.3 lineto
stroke
newpath
7676.72 26130.7 moveto
7751.71 26130.7 lineto
7826.7 26093.2 lineto
7864.19 26055.7 lineto
7901.69 25980.7 lineto
7939.18 25830.7 lineto
7939.18 25643.3 lineto
7901.69 25493.3 lineto
7864.19 25418.3 lineto
7826.7 25380.8 lineto
7751.71 25343.3 lineto
7676.72 25343.3 lineto
7601.73 25380.8 lineto
7564.23 25418.3 lineto
7526.74 25493.3 lineto
7489.24 25643.3 lineto
7489.24 25830.7 lineto
7526.74 25980.7 lineto
7564.23 26055.7 lineto
7601.73 26093.2 lineto
7676.72 26130.7 lineto
stroke
newpath
8426.62 26130.7 moveto
8501.61 26130.7 lineto
8576.6 26093.2 lineto
8614.1 26055.7 lineto
8651.59 25980.7 lineto
8689.09 25830.7 lineto
8689.09 25643.3 lineto
8651.59 25493.3 lineto
8614.1 25418.3 lineto
8576.6 25380.8 lineto
8501.61 25343.3 lineto
8426.62 25343.3 lineto
8351.63 25380.8 lineto
8314.14 25418.3 lineto
8276.64 25493.3 lineto
8239.15 25643.3 lineto
8239.15 25830.7 lineto
8276.64 25980.7 lineto
8314.14 26055.7 lineto
8351.63 26093.2 lineto
8426.62 26130.7 lineto
stroke
newpath
9026.55 25343.3 moveto
9026.55 25868.2 lineto
stroke
newpath
9026.55 25793.2 moveto
9064.04 25830.7 lineto
9139.03 25868.2 lineto
9251.52 25868.2 lineto
9326.51 25830.7 lineto
9364.01 25755.7 lineto
9364.01 25343.3 lineto
stroke
newpath
9364.01 25755.7 moveto
9401.5 25830.7 lineto
9476.49 25868.2 lineto
9588.98 25868.2 lineto
9663.97 25830.7 lineto
9701.46 25755.7 lineto
9701.46 25343.3 lineto
stroke
newpath
10076.4 25343.3 moveto
10076.4 25868.2 lineto
stroke
newpath
10076.4 25793.2 moveto
10113.9 25830.7 lineto
10188.9 25868.2 lineto
10301.4 25868.2 lineto
10376.4 25830.7 lineto
10413.9 25755.7 lineto
10413.9 25343.3 lineto
stroke
newpath
10413.9 25755.7 moveto
10451.4 25830.7 lineto
10526.4 25868.2 lineto
10638.8 25868.2 lineto
10713.8 25830.7 lineto
10751.3 25755.7 lineto
10751.3 25343.3 lineto
stroke
newpath
12288.6 26168.2 moveto
11613.7 25155.8 lineto
stroke
newpath
13301 26130.7 moveto
13376 26130.7 lineto
13451 26093.2 lineto
13488.5 26055.7 lineto
13526 25980.7 lineto
13563.5 25830.7 lineto
13563.5 25643.3 lineto
13526 25493.3 lineto
13488.5 25418.3 lineto
13451 25380.8 lineto
13376 25343.3 lineto
13301 25343.3 lineto
13226 25380.8 lineto
13188.5 25418.3 lineto
13151 25493.3 lineto
13113.5 25643.3 lineto
13113.5 25830.7 lineto
13151 25980.7 lineto
13188.5 26055.7 lineto
13226 26093.2 lineto
13301 26130.7 lineto
stroke
newpath
13900.9 25418.3 moveto
13938.4 25380.8 lineto
13900.9 25343.3 lineto
13863.4 25380.8 lineto
13900.9 25418.3 lineto
13900.9 25343.3 lineto
stroke
newpath
14425.9 26130.7 moveto
14500.9 26130.7 lineto
14575.9 26093.2 lineto
14613.4 26055.7 lineto
14650.8 25980.7 lineto
14688.3 25830.7 lineto
14688.3 25643.3 lineto
14650.8 25493.3 lineto
14613.4 25418.3 lineto
14575.9 25380.8 lineto
14500.9 25343.3 lineto
14425.9 25343.3 lineto
14350.9 25380.8 lineto
14313.4 25418.3 lineto
14275.9 25493.3 lineto
14238.4 25643.3 lineto
14238.4 25830.7 lineto
14275.9 25980.7 lineto
14313.4 26055.7 lineto
14350.9 26093.2 lineto
14425.9 26130.7 lineto
stroke
newpath
15400.8 26130.7 moveto
15025.8 26130.7 lineto
14988.3 25755.7 lineto
15025.8 25793.2 lineto
15100.8 25830.7 lineto
15288.3 25830.7 lineto
15363.3 25793.2 lineto
15400.8 25755.7 lineto
15438.2 25680.7 lineto
15438.2 25493.3 lineto
15400.8 25418.3 lineto
15363.3 25380.8 lineto
15288.3 25343.3 lineto
15100.8 25343.3 lineto
15025.8 25380.8 lineto
14988.3 25418.3 lineto
stroke
newpath
15813.2 25343.3 moveto
15963.2 25343.3 lineto
16038.2 25380.8 lineto
16075.7 25418.3 lineto
16150.7 25530.8 lineto
16188.2 25680.7 lineto
16188.2 25980.7 lineto
16150.7 26055.7 lineto
16113.2 26093.2 lineto
16038.2 26130.7 lineto
15888.2 26130.7 lineto
15813.2 26093.2 lineto
15775.7 26055.7 lineto
15738.2 25980.7 lineto
15738.2 25793.2 lineto
15775.7 25718.2 lineto
15813.2 25680.7 lineto
15888.2 25643.3 lineto
16038.2 25643.3 lineto
16113.2 25680.7 lineto
16150.7 25718.2 lineto
16188.2 25793.2 lineto
stroke
newpath
16938.1 25343.3 moveto
16488.1 25343.3 lineto
stroke
newpath
16713.1 25343.3 moveto
16713.1 26130.7 lineto
16638.1 26018.2 lineto
16563.1 25943.2 lineto
16488.1 25905.7 lineto
stroke
newpath
17238 26130.7 moveto
17238 25980.7 lineto
stroke
newpath
17538 26130.7 moveto
17538 25980.7 lineto
stroke
newpath
18700.3 25043.3 moveto
18662.8 25080.8 lineto
18587.9 25193.3 lineto
18550.4 25268.3 lineto
18512.9 25380.8 lineto
18475.4 25568.3 lineto
18475.4 25718.2 lineto
18512.9 25905.7 lineto
18550.4 26018.2 lineto
18587.9 26093.2 lineto
18662.8 26205.7 lineto
18700.3 26243.2 lineto
stroke
newpath
18962.8 26055.7 moveto
19000.3 26093.2 lineto
19075.3 26130.7 lineto
19262.8 26130.7 lineto
19337.8 26093.2 lineto
19375.3 26055.7 lineto
19412.8 25980.7 lineto
19412.8 25905.7 lineto
19375.3 25793.2 lineto
18925.3 25343.3 lineto
19412.8 25343.3 lineto
stroke
newpath
20350.1 25343.3 moveto
20350.1 26130.7 lineto
stroke
newpath
20687.6 25343.3 moveto
20687.6 25755.7 lineto
20650.1 25830.7 lineto
20575.1 25868.2 lineto
20462.6 25868.2 lineto
20387.6 25830.7 lineto
20350.1 25793.2 lineto
stroke
newpath
21175 25343.3 moveto
21100 25380.8 lineto
21062.5 25418.3 lineto
21025 25493.3 lineto
21025 25718.2 lineto
21062.5 25793.2 lineto
21100 25830.7 lineto
21175 25868.2 lineto
21287.5 25868.2 lineto
21362.5 25830.7 lineto
21400 25793.2 lineto
21437.5 25718.2 lineto
21437.5 25493.3 lineto
21400 25418.3 lineto
21362.5 25380.8 lineto
21287.5 25343.3 lineto
21175 25343.3 lineto
stroke
newpath
21887.4 25343.3 moveto
21812.5 25380.8 lineto
21775 25455.8 lineto
21775 26130.7 lineto
stroke
newpath
22487.4 25380.8 moveto
22412.4 25343.3 lineto
22262.4 25343.3 lineto
22187.4 25380.8 lineto
22149.9 25455.8 lineto
22149.9 25755.7 lineto
22187.4 25830.7 lineto
22262.4 25868.2 lineto
22412.4 25868.2 lineto
22487.4 25830.7 lineto
22524.9 25755.7 lineto
22524.9 25680.7 lineto
22149.9 25605.8 lineto
stroke
newpath
22824.8 25380.8 moveto
22899.8 25343.3 lineto
23049.8 25343.3 lineto
23124.8 25380.8 lineto
23162.3 25455.8 lineto
23162.3 25493.3 lineto
23124.8 25568.3 lineto
23049.8 25605.8 lineto
22937.3 25605.8 lineto
22862.3 25643.3 lineto
22824.8 25718.2 lineto
22824.8 25755.7 lineto
22862.3 25830.7 lineto
22937.3 25868.2 lineto
23049.8 25868.2 lineto
23124.8 25830.7 lineto
stroke
newpath
23424.7 25043.3 moveto
23462.2 25080.8 lineto
23537.2 25193.3 lineto
23574.7 25268.3 lineto
23612.2 25380.8 lineto
23649.7 25568.3 lineto
23649.7 25718.2 lineto
23612.2 25905.7 lineto
23574.7 26018.2 lineto
23537.2 26093.2 lineto
23462.2 26205.7 lineto
23424.7 26243.2 lineto
stroke
showpage
grestore
%%EOF
