M48
; DRILL file {KiCad 6.99.0-a9ca49a600~144~ubuntu21.04.1} date Mon 03 Jan 2022 16:04:51 GMT
; FORMAT={-:-/ absolute / inch / decimal}
; #@! TF.CreationDate,2022-01-03T16:04:51+00:00
; #@! TF.GenerationSoftware,Kicad,Pcbnew,6.99.0-a9ca49a600~144~ubuntu21.04.1
; #@! TF.FileFunction,Plated,1,2,PTH
FMAT,2
INCH
; #@! TA.AperFunction,Plated,PTH,ViaDrill
T1C0.0157
; #@! TA.AperFunction,Plated,PTH,ComponentDrill
T2C0.0236
; #@! TA.AperFunction,Plated,PTH,ViaDrill
T3C0.0315
; #@! TA.AperFunction,Plated,PTH,ComponentDrill
T4C0.0315
; #@! TA.AperFunction,Plated,PTH,ComponentDrill
T5C0.0335
; #@! TA.AperFunction,Plated,PTH,ComponentDrill
T6C0.0400
; #@! TA.AperFunction,Plated,PTH,ComponentDrill
T7C0.0591
%
G90
G05
T1
X4.6112Y-2.7461
X4.6339Y-3.2136
X4.6634Y-2.8711
X4.6654Y-3.0876
X4.6762Y-2.9291
X4.6772Y-2.9764
X4.7598Y-3.2175
X4.9616Y-2.9646
X4.9911Y-2.9341
X5.0226Y-2.9006
X5.6949Y-2.8159
X6.1152Y-3.4636
X6.4695Y-3.7156
X7.2156Y-3.4449
T3
X3.9514Y-3.7864
X4.295Y-3.195
X4.3346Y-2.9183
X5.4341Y-3.5404
X6.5866Y-2.8858
T4
X4.1545Y-3.4852
X4.1545Y-3.564
X4.1545Y-3.6427
X5.3663Y-2.6398
X5.3663Y-3.2398
X5.4663Y-2.6398
X5.4663Y-3.2398
X5.5663Y-2.6398
X5.5663Y-3.2398
X5.6663Y-2.6398
X5.6663Y-3.2398
X5.7663Y-2.6398
X5.7663Y-3.2398
X5.8663Y-2.6398
X5.8663Y-3.2398
X5.9663Y-2.6398
X5.9663Y-3.2398
X6.0663Y-2.6398
X6.0663Y-3.2398
X6.1663Y-2.6398
X6.1663Y-3.2398
X6.2663Y-2.6398
X6.2663Y-3.2398
X6.3663Y-2.6398
X6.3663Y-3.2398
X6.4663Y-2.6398
X6.4663Y-3.2398
X6.5663Y-2.6398
X6.5663Y-3.2398
X6.6663Y-2.6398
X6.6663Y-3.2398
X6.7663Y-2.6398
X6.7663Y-3.2398
X6.8663Y-2.6398
X6.8663Y-3.2398
X6.9663Y-2.6398
X6.9663Y-3.2398
X7.0663Y-2.6398
X7.0663Y-3.2398
X7.1663Y-2.6398
X7.1663Y-3.2398
X7.2663Y-2.6398
X7.2663Y-3.2398
X7.3663Y-2.6398
X7.3663Y-3.2398
X7.4663Y-2.6398
X7.4663Y-3.2398
X7.5663Y-2.6398
X7.5663Y-3.2398
X7.6663Y-2.6398
X7.6663Y-3.2398
T5
X3.8351Y-3.5945
X3.8351Y-3.7913
T6
X4.6206Y-3.6691
X4.6206Y-3.8691
X4.7206Y-3.6691
X4.7206Y-3.8691
X4.8206Y-3.6691
X4.8206Y-3.8691
X4.9206Y-3.6691
X4.9206Y-3.8691
X5.0206Y-3.6691
X5.0206Y-3.8691
X5.1206Y-3.6691
X5.1206Y-3.8691
X5.2206Y-3.6691
X5.2206Y-3.8691
X5.3206Y-3.6691
X5.3206Y-3.8691
X5.4206Y-3.6691
X5.4206Y-3.8691
X5.5206Y-3.6691
X5.5206Y-3.8691
X5.6206Y-3.6691
X5.6206Y-3.8691
X5.7206Y-3.6691
X5.7206Y-3.8691
X5.8206Y-3.6691
X5.8206Y-3.8691
X5.9206Y-3.6691
X5.9206Y-3.8691
X6.0206Y-3.6691
X6.0206Y-3.8691
X6.1206Y-3.6691
X6.1206Y-3.8691
X6.2206Y-3.6691
X6.2206Y-3.8691
X6.3206Y-3.6691
X6.3206Y-3.8691
X6.7262Y-3.6691
X6.7262Y-3.8691
X6.8262Y-3.6691
X6.8262Y-3.8691
X6.9262Y-3.6691
X6.9262Y-3.8691
X7.0262Y-3.6691
X7.0262Y-3.8691
X7.1262Y-3.6691
X7.1262Y-3.8691
X7.2262Y-3.6691
X7.2262Y-3.8691
X7.3262Y-3.6691
X7.3262Y-3.8691
X7.4262Y-3.6691
X7.4262Y-3.8691
X7.5262Y-3.6691
X7.5262Y-3.8691
X7.6262Y-3.6691
X7.6262Y-3.8691
X7.7262Y-3.6691
X7.7262Y-3.8691
X7.8262Y-3.6691
X7.8262Y-3.8691
X7.9262Y-3.6691
X7.9262Y-3.8691
X8.0262Y-3.6691
X8.0262Y-3.8691
X8.1262Y-3.6691
X8.1262Y-3.8691
X8.2262Y-3.6691
X8.2262Y-3.8691
X8.3262Y-3.6691
X8.3262Y-3.8691
X8.4262Y-3.6691
X8.4262Y-3.8691
T7
X4.1545Y-3.4026
X4.1545Y-3.7254
T2
G00X3.7151Y-3.5551
M15
G01X3.7426Y-3.5551
M16
G05
G00X3.7426Y-3.8307
M15
G01X3.7151Y-3.8307
M16
G05
T0
M30
