G04 #@! TF.GenerationSoftware,KiCad,Pcbnew,6.99.0-a9ca49a600~144~ubuntu21.04.1*
G04 #@! TF.CreationDate,2022-01-03T16:04:47+00:00*
G04 #@! TF.ProjectId,Tester,54657374-6572-42e6-9b69-6361645f7063,rev?*
G04 #@! TF.SameCoordinates,Original*
G04 #@! TF.FileFunction,Soldermask,Top*
G04 #@! TF.FilePolarity,Negative*
%FSLAX46Y46*%
G04 Gerber Fmt 4.6, Leading zero omitted, Abs format (unit mm)*
G04 Created by KiCad (PCBNEW 6.99.0-a9ca49a600~144~ubuntu21.04.1) date 2022-01-03 16:04:47*
%MOMM*%
%LPD*%
G01*
G04 APERTURE LIST*
G04 Aperture macros list*
%AMRoundRect*
0 Rectangle with rounded corners*
0 $1 Rounding radius*
0 $2 $3 $4 $5 $6 $7 $8 $9 X,Y pos of 4 corners*
0 Add a 4 corners polygon primitive as box body*
4,1,4,$2,$3,$4,$5,$6,$7,$8,$9,$2,$3,0*
0 Add four circle primitives for the rounded corners*
1,1,$1+$1,$2,$3*
1,1,$1+$1,$4,$5*
1,1,$1+$1,$6,$7*
1,1,$1+$1,$8,$9*
0 Add four rect primitives between the rounded corners*
20,1,$1+$1,$2,$3,$4,$5,0*
20,1,$1+$1,$4,$5,$6,$7,0*
20,1,$1+$1,$6,$7,$8,$9,0*
20,1,$1+$1,$8,$9,$2,$3,0*%
G04 Aperture macros list end*
%ADD10R,2.200000X2.400000*%
%ADD11R,1.524000X1.524000*%
%ADD12C,1.524000*%
%ADD13C,3.200000*%
%ADD14RoundRect,0.237500X0.250000X0.237500X-0.250000X0.237500X-0.250000X-0.237500X0.250000X-0.237500X0*%
%ADD15RoundRect,0.237500X-0.287500X-0.237500X0.287500X-0.237500X0.287500X0.237500X-0.287500X0.237500X0*%
%ADD16RoundRect,0.237500X-0.237500X0.300000X-0.237500X-0.300000X0.237500X-0.300000X0.237500X0.300000X0*%
%ADD17O,3.500000X2.200000*%
%ADD18R,2.500000X1.500000*%
%ADD19O,2.500000X1.500000*%
%ADD20RoundRect,0.237500X-0.300000X-0.237500X0.300000X-0.237500X0.300000X0.237500X-0.300000X0.237500X0*%
%ADD21RoundRect,0.237500X0.237500X-0.300000X0.237500X0.300000X-0.237500X0.300000X-0.237500X-0.300000X0*%
%ADD22RoundRect,0.237500X0.300000X0.237500X-0.300000X0.237500X-0.300000X-0.237500X0.300000X-0.237500X0*%
%ADD23R,0.550000X1.600000*%
%ADD24R,1.600000X0.550000*%
%ADD25RoundRect,0.237500X-0.250000X-0.237500X0.250000X-0.237500X0.250000X0.237500X-0.250000X0.237500X0*%
%ADD26R,1.600000X2.400000*%
%ADD27O,1.600000X2.400000*%
%ADD28R,1.350000X0.400000*%
%ADD29R,1.900000X1.200000*%
%ADD30C,1.450000*%
%ADD31R,1.900000X1.500000*%
%ADD32O,1.900000X1.200000*%
G04 APERTURE END LIST*
D10*
G04 #@! TO.C,Y1*
X123800000Y-87757000D03*
X117500000Y-87757000D03*
G04 #@! TD*
D11*
G04 #@! TO.C,J2*
X214025000Y-93195000D03*
D12*
X214025000Y-98275000D03*
X211485000Y-93195000D03*
X211485000Y-98275000D03*
X208945000Y-93195000D03*
X208945000Y-98275000D03*
X206405000Y-93195000D03*
X206405000Y-98275000D03*
X203865000Y-93195000D03*
X203865000Y-98275000D03*
X201325000Y-93195000D03*
X201325000Y-98275000D03*
X198785000Y-93195000D03*
X198785000Y-98275000D03*
X196245000Y-93195000D03*
X196245000Y-98275000D03*
X193705000Y-93195000D03*
X193705000Y-98275000D03*
X191165000Y-93195000D03*
X191165000Y-98275000D03*
X188625000Y-93195000D03*
X188625000Y-98275000D03*
X186085000Y-93195000D03*
X186085000Y-98275000D03*
X183545000Y-93195000D03*
X183545000Y-98275000D03*
X181005000Y-93195000D03*
X181005000Y-98275000D03*
X178465000Y-93195000D03*
X178465000Y-98275000D03*
X175925000Y-93195000D03*
X175925000Y-98275000D03*
X173385000Y-93195000D03*
X173385000Y-98275000D03*
X170845000Y-93195000D03*
X170845000Y-98275000D03*
G04 #@! TD*
D13*
G04 #@! TO.C,H2*
X212750000Y-105075000D03*
G04 #@! TD*
D14*
G04 #@! TO.C,R2*
X111021500Y-76073000D03*
X109196500Y-76073000D03*
G04 #@! TD*
D15*
G04 #@! TO.C,D1*
X109125000Y-93125000D03*
X110875000Y-93125000D03*
G04 #@! TD*
D16*
G04 #@! TO.C,C1*
X114427000Y-87783500D03*
X114427000Y-89508500D03*
G04 #@! TD*
D13*
G04 #@! TO.C,H4*
X97450000Y-60625000D03*
G04 #@! TD*
D17*
G04 #@! TO.C,SW1*
X105525000Y-86425000D03*
X105525000Y-94625000D03*
D18*
X105525000Y-92525000D03*
D19*
X105525000Y-90525000D03*
X105525000Y-88525000D03*
G04 #@! TD*
D11*
G04 #@! TO.C,J3*
X160544000Y-93195000D03*
D12*
X160544000Y-98275000D03*
X158004000Y-93195000D03*
X158004000Y-98275000D03*
X155464000Y-93195000D03*
X155464000Y-98275000D03*
X152924000Y-93195000D03*
X152924000Y-98275000D03*
X150384000Y-93195000D03*
X150384000Y-98275000D03*
X147844000Y-93195000D03*
X147844000Y-98275000D03*
X145304000Y-93195000D03*
X145304000Y-98275000D03*
X142764000Y-93195000D03*
X142764000Y-98275000D03*
X140224000Y-93195000D03*
X140224000Y-98275000D03*
X137684000Y-93195000D03*
X137684000Y-98275000D03*
X135144000Y-93195000D03*
X135144000Y-98275000D03*
X132604000Y-93195000D03*
X132604000Y-98275000D03*
X130064000Y-93195000D03*
X130064000Y-98275000D03*
X127524000Y-93195000D03*
X127524000Y-98275000D03*
X124984000Y-93195000D03*
X124984000Y-98275000D03*
X122444000Y-93195000D03*
X122444000Y-98275000D03*
X119904000Y-93195000D03*
X119904000Y-98275000D03*
X117364000Y-93195000D03*
X117364000Y-98275000D03*
G04 #@! TD*
D20*
G04 #@! TO.C,C5*
X109246500Y-77851000D03*
X110971500Y-77851000D03*
G04 #@! TD*
D21*
G04 #@! TO.C,C3*
X121750000Y-68287500D03*
X121750000Y-66562500D03*
G04 #@! TD*
D16*
G04 #@! TO.C,C2*
X126873000Y-87656500D03*
X126873000Y-89381500D03*
G04 #@! TD*
D14*
G04 #@! TO.C,R6*
X110862500Y-90500000D03*
X109037500Y-90500000D03*
G04 #@! TD*
D22*
G04 #@! TO.C,C4*
X119353500Y-83058000D03*
X117628500Y-83058000D03*
G04 #@! TD*
D23*
G04 #@! TO.C,U1*
X116950000Y-79950000D03*
X117750000Y-79950000D03*
X118550000Y-79950000D03*
X119350000Y-79950000D03*
X120150000Y-79950000D03*
X120950000Y-79950000D03*
X121750000Y-79950000D03*
X122550000Y-79950000D03*
D24*
X124000000Y-78500000D03*
X124000000Y-77700000D03*
X124000000Y-76900000D03*
X124000000Y-76100000D03*
X124000000Y-75300000D03*
X124000000Y-74500000D03*
X124000000Y-73700000D03*
X124000000Y-72900000D03*
D23*
X122550000Y-71450000D03*
X121750000Y-71450000D03*
X120950000Y-71450000D03*
X120150000Y-71450000D03*
X119350000Y-71450000D03*
X118550000Y-71450000D03*
X117750000Y-71450000D03*
X116950000Y-71450000D03*
D24*
X115500000Y-72900000D03*
X115500000Y-73700000D03*
X115500000Y-74500000D03*
X115500000Y-75300000D03*
X115500000Y-76100000D03*
X115500000Y-76900000D03*
X115500000Y-77700000D03*
X115500000Y-78500000D03*
G04 #@! TD*
D13*
G04 #@! TO.C,H3*
X97450000Y-105075000D03*
G04 #@! TD*
G04 #@! TO.C,H1*
X193925000Y-60625000D03*
G04 #@! TD*
D25*
G04 #@! TO.C,R1*
X121642500Y-83693000D03*
X123467500Y-83693000D03*
G04 #@! TD*
D26*
G04 #@! TO.C,U2*
X194725000Y-67050000D03*
D27*
X192185000Y-67050000D03*
X189645000Y-67050000D03*
X187105000Y-67050000D03*
X184565000Y-67050000D03*
X182025000Y-67050000D03*
X179485000Y-67050000D03*
X176945000Y-67050000D03*
X174405000Y-67050000D03*
X171865000Y-67050000D03*
X169325000Y-67050000D03*
X166785000Y-67050000D03*
X164245000Y-67050000D03*
X161705000Y-67050000D03*
X159165000Y-67050000D03*
X156625000Y-67050000D03*
X154085000Y-67050000D03*
X151545000Y-67050000D03*
X149005000Y-67050000D03*
X146465000Y-67050000D03*
X143925000Y-67050000D03*
X141385000Y-67050000D03*
X138845000Y-67050000D03*
X136305000Y-67050000D03*
X136305000Y-82290000D03*
X138845000Y-82290000D03*
X141385000Y-82290000D03*
X143925000Y-82290000D03*
X146465000Y-82290000D03*
X149005000Y-82290000D03*
X151545000Y-82290000D03*
X154085000Y-82290000D03*
X156625000Y-82290000D03*
X159165000Y-82290000D03*
X161705000Y-82290000D03*
X164245000Y-82290000D03*
X166785000Y-82290000D03*
X169325000Y-82290000D03*
X171865000Y-82290000D03*
X174405000Y-82290000D03*
X176945000Y-82290000D03*
X179485000Y-82290000D03*
X182025000Y-82290000D03*
X184565000Y-82290000D03*
X187105000Y-82290000D03*
X189645000Y-82290000D03*
X192185000Y-82290000D03*
X194725000Y-82290000D03*
G04 #@! TD*
D28*
G04 #@! TO.C,J1*
X97412500Y-92500000D03*
X97412500Y-93150000D03*
X97412500Y-93800000D03*
X97412500Y-94450000D03*
X97412500Y-95100000D03*
D29*
X94712500Y-96700000D03*
D30*
X97412500Y-91300000D03*
D31*
X94712500Y-94800000D03*
X94712500Y-92800000D03*
D29*
X94712500Y-90900000D03*
D32*
X94712500Y-90300000D03*
X94712500Y-97300000D03*
D30*
X97412500Y-96300000D03*
G04 #@! TD*
M02*
