%!PS-Adobe-3.0
%%Creator: PCBNEW
%%CreationDate: Mon Jan  3 16:04:51 2022
%%Title: ()
%%Pages: 1
%%PageOrder: Ascend
%%BoundingBox: 0 0 596 842
%%DocumentMedia: A4 595 842 0 () ()
%%Orientation: Landscape
%%EndComments
%%BeginProlog
/line { newpath moveto lineto stroke } bind def
/cir0 { newpath 0 360 arc stroke } bind def
/cir1 { newpath 0 360 arc gsave fill grestore stroke } bind def
/cir2 { newpath 0 360 arc gsave fill grestore stroke } bind def
/arc0 { newpath arc stroke } bind def
/arc1 { newpath 4 index 4 index moveto arc closepath gsave fill
    grestore stroke } bind def
/arc2 { newpath 4 index 4 index moveto arc closepath gsave fill
    grestore stroke } bind def
/poly0 { stroke } bind def
/poly1 { closepath gsave fill grestore stroke } bind def
/poly2 { closepath gsave fill grestore stroke } bind def
/rect0 { rectstroke } bind def
/rect1 { rectfill } bind def
/rect2 { rectfill } bind def
/linemode0 { 0 setlinecap 0 setlinejoin 0 setlinewidth } bind def
/linemode1 { 1 setlinecap 1 setlinejoin } bind def
/dashedline { [200] 100 setdash } bind def
/solidline { [] 0 setdash } bind def
/phantomshow { moveto
    /KicadFont findfont 0.000001 scalefont setfont
    show } bind def
/textshow { gsave
    findfont exch scalefont setfont concat 1 scale 0 0 moveto show
    } bind def
/reencodefont {
  findfont dup length dict begin
  { 1 index /FID ne
    { def }
    { pop pop } ifelse
  } forall
  /Encoding ISOLatin1Encoding def
  currentdict
  end } bind def
/KicadFont /Helvetica reencodefont definefont pop
/KicadFont-Bold /Helvetica-Bold reencodefont definefont pop
/KicadFont-Oblique /Helvetica-Oblique reencodefont definefont pop
/KicadFont-BoldOblique /Helvetica-BoldOblique reencodefont definefont pop
%%EndProlog
%%Page: 1 1
%%BeginPageSetup
gsave
0.0072 0.0072 scale
linemode1
82680 0 translate 90 rotate
168.605 setlinewidth
%%EndPageSetup
0 0 0 setrgbcolor
84.3027 setlinewidth
newpath
4679.87 35082.7 moveto
4679.87 80669.3 lineto
stroke
0 0 0 setrgbcolor
newpath
112250 35082.7 moveto
4679.87 35082.7 lineto
stroke
0 0 0 setrgbcolor
newpath
112250 51985.3 moveto
112250 35082.7 lineto
stroke
0 0 0 setrgbcolor
newpath
4679.87 80669.3 moveto
60846.6 80669.3 lineto
stroke
0 0 0 setrgbcolor
newpath
112250 51985.3 moveto
93071.3 80669.3 lineto
stroke
0 0 0 setrgbcolor
newpath
60846.6 80669.3 moveto
93071.3 80669.3 lineto
stroke
168.605 setlinewidth
269.769 setlinewidth
newpath
7946.6 78182.4 moveto
10644.3 75484.7 lineto
stroke
newpath
10644.3 78182.4 moveto
7946.6 75484.7 lineto
stroke
newpath
7946.6 40709.9 moveto
10644.3 38012.2 lineto
stroke
newpath
10644.3 40709.9 moveto
7946.6 38012.2 lineto
stroke
newpath
89277.6 78182.4 moveto
91975.3 75484.7 lineto
stroke
newpath
91975.3 78182.4 moveto
89277.6 75484.7 lineto
stroke
newpath
105148 40709.9 moveto
107845 38012.2 lineto
stroke
newpath
107845 40709.9 moveto
105148 38012.2 lineto
stroke
168.605 setlinewidth
78.7404 setlinewidth
0 0 0 setrgbcolor
0 0 0 setrgbcolor
newpath
5651.97 33818.2 moveto
5651.97 34605.6 lineto
5839.45 34605.6 lineto
5951.93 34568.1 lineto
6026.92 34493.1 lineto
6064.42 34418.1 lineto
6101.91 34268.1 lineto
6101.91 34155.6 lineto
6064.42 34005.6 lineto
6026.92 33930.6 lineto
5951.93 33855.7 lineto
5839.45 33818.2 lineto
5651.97 33818.2 lineto
stroke
newpath
6439.37 33818.2 moveto
6439.37 34343.1 lineto
stroke
newpath
6439.37 34193.1 moveto
6476.87 34268.1 lineto
6514.36 34305.6 lineto
6589.35 34343.1 lineto
6664.34 34343.1 lineto
stroke
newpath
6926.81 33818.2 moveto
6926.81 34343.1 lineto
stroke
newpath
6926.81 34605.6 moveto
6889.32 34568.1 lineto
6926.81 34530.6 lineto
6964.31 34568.1 lineto
6926.81 34605.6 lineto
6926.81 34530.6 lineto
stroke
newpath
7414.25 33818.2 moveto
7339.26 33855.7 lineto
7301.76 33930.6 lineto
7301.76 34605.6 lineto
stroke
newpath
7826.7 33818.2 moveto
7751.71 33855.7 lineto
7714.21 33930.6 lineto
7714.21 34605.6 lineto
stroke
newpath
8726.59 33818.2 moveto
8726.59 34605.6 lineto
8989.05 34043.1 lineto
9251.52 34605.6 lineto
9251.52 33818.2 lineto
stroke
newpath
9963.93 33818.2 moveto
9963.93 34230.6 lineto
9926.44 34305.6 lineto
9851.45 34343.1 lineto
9701.46 34343.1 lineto
9626.47 34305.6 lineto
stroke
newpath
9963.93 33855.7 moveto
9888.94 33818.2 lineto
9701.46 33818.2 lineto
9626.47 33855.7 lineto
9588.98 33930.6 lineto
9588.98 34005.6 lineto
9626.47 34080.6 lineto
9701.46 34118.1 lineto
9888.94 34118.1 lineto
9963.93 34155.6 lineto
stroke
newpath
10338.9 34343.1 moveto
10338.9 33555.7 lineto
stroke
newpath
10338.9 34305.6 moveto
10413.9 34343.1 lineto
10563.9 34343.1 lineto
10638.8 34305.6 lineto
10676.3 34268.1 lineto
10713.8 34193.1 lineto
10713.8 33968.1 lineto
10676.3 33893.1 lineto
10638.8 33855.7 lineto
10563.9 33818.2 lineto
10413.9 33818.2 lineto
10338.9 33855.7 lineto
stroke
newpath
11051.3 33893.1 moveto
11088.8 33855.7 lineto
11051.3 33818.2 lineto
11013.8 33855.7 lineto
11051.3 33893.1 lineto
11051.3 33818.2 lineto
stroke
newpath
11051.3 34305.6 moveto
11088.8 34268.1 lineto
11051.3 34230.6 lineto
11013.8 34268.1 lineto
11051.3 34305.6 lineto
11051.3 34230.6 lineto
stroke
78.7396 setlinewidth
newpath
3850.32 32914.5 moveto
4637.72 32127.1 lineto
stroke
newpath
4637.72 32914.5 moveto
3850.32 32127.1 lineto
stroke
168.605 setlinewidth
78.7404 setlinewidth
0 0 0 setrgbcolor
0 0 0 setrgbcolor
newpath
5576.98 32952 moveto
6064.42 32952 lineto
5801.95 32652.1 lineto
5914.44 32652.1 lineto
5989.43 32614.6 lineto
6026.92 32577.1 lineto
6064.42 32502.1 lineto
6064.42 32314.6 lineto
6026.92 32239.6 lineto
5989.43 32202.1 lineto
5914.44 32164.6 lineto
5689.47 32164.6 lineto
5614.47 32202.1 lineto
5576.98 32239.6 lineto
stroke
newpath
6401.88 32239.6 moveto
6439.37 32202.1 lineto
6401.88 32164.6 lineto
6364.38 32202.1 lineto
6401.88 32239.6 lineto
6401.88 32164.6 lineto
stroke
newpath
6739.33 32877 moveto
6776.83 32914.5 lineto
6851.82 32952 lineto
7039.3 32952 lineto
7114.29 32914.5 lineto
7151.78 32877 lineto
7189.28 32802 lineto
7189.28 32727 lineto
7151.78 32614.6 lineto
6701.84 32164.6 lineto
7189.28 32164.6 lineto
stroke
newpath
7676.72 32952 moveto
7751.71 32952 lineto
7826.7 32914.5 lineto
7864.19 32877 lineto
7901.69 32802 lineto
7939.18 32652.1 lineto
7939.18 32464.6 lineto
7901.69 32314.6 lineto
7864.19 32239.6 lineto
7826.7 32202.1 lineto
7751.71 32164.6 lineto
7676.72 32164.6 lineto
7601.73 32202.1 lineto
7564.23 32239.6 lineto
7526.74 32314.6 lineto
7489.24 32464.6 lineto
7489.24 32652.1 lineto
7526.74 32802 lineto
7564.23 32877 lineto
7601.73 32914.5 lineto
7676.72 32952 lineto
stroke
newpath
8426.62 32952 moveto
8501.61 32952 lineto
8576.6 32914.5 lineto
8614.1 32877 lineto
8651.59 32802 lineto
8689.09 32652.1 lineto
8689.09 32464.6 lineto
8651.59 32314.6 lineto
8614.1 32239.6 lineto
8576.6 32202.1 lineto
8501.61 32164.6 lineto
8426.62 32164.6 lineto
8351.63 32202.1 lineto
8314.14 32239.6 lineto
8276.64 32314.6 lineto
8239.15 32464.6 lineto
8239.15 32652.1 lineto
8276.64 32802 lineto
8314.14 32877 lineto
8351.63 32914.5 lineto
8426.62 32952 lineto
stroke
newpath
9026.55 32164.6 moveto
9026.55 32689.5 lineto
stroke
newpath
9026.55 32614.6 moveto
9064.04 32652.1 lineto
9139.03 32689.5 lineto
9251.52 32689.5 lineto
9326.51 32652.1 lineto
9364.01 32577.1 lineto
9364.01 32164.6 lineto
stroke
newpath
9364.01 32577.1 moveto
9401.5 32652.1 lineto
9476.49 32689.5 lineto
9588.98 32689.5 lineto
9663.97 32652.1 lineto
9701.46 32577.1 lineto
9701.46 32164.6 lineto
stroke
newpath
10076.4 32164.6 moveto
10076.4 32689.5 lineto
stroke
newpath
10076.4 32614.6 moveto
10113.9 32652.1 lineto
10188.9 32689.5 lineto
10301.4 32689.5 lineto
10376.4 32652.1 lineto
10413.9 32577.1 lineto
10413.9 32164.6 lineto
stroke
newpath
10413.9 32577.1 moveto
10451.4 32652.1 lineto
10526.4 32689.5 lineto
10638.8 32689.5 lineto
10713.8 32652.1 lineto
10751.3 32577.1 lineto
10751.3 32164.6 lineto
stroke
newpath
12288.6 32989.5 moveto
11613.7 31977.1 lineto
stroke
newpath
13301 32952 moveto
13376 32952 lineto
13451 32914.5 lineto
13488.5 32877 lineto
13526 32802 lineto
13563.5 32652.1 lineto
13563.5 32464.6 lineto
13526 32314.6 lineto
13488.5 32239.6 lineto
13451 32202.1 lineto
13376 32164.6 lineto
13301 32164.6 lineto
13226 32202.1 lineto
13188.5 32239.6 lineto
13151 32314.6 lineto
13113.5 32464.6 lineto
13113.5 32652.1 lineto
13151 32802 lineto
13188.5 32877 lineto
13226 32914.5 lineto
13301 32952 lineto
stroke
newpath
13900.9 32239.6 moveto
13938.4 32202.1 lineto
13900.9 32164.6 lineto
13863.4 32202.1 lineto
13900.9 32239.6 lineto
13900.9 32164.6 lineto
stroke
newpath
14688.3 32164.6 moveto
14238.4 32164.6 lineto
stroke
newpath
14463.4 32164.6 moveto
14463.4 32952 lineto
14388.4 32839.5 lineto
14313.4 32764.5 lineto
14238.4 32727 lineto
stroke
newpath
14988.3 32877 moveto
15025.8 32914.5 lineto
15100.8 32952 lineto
15288.3 32952 lineto
15363.3 32914.5 lineto
15400.8 32877 lineto
15438.2 32802 lineto
15438.2 32727 lineto
15400.8 32614.6 lineto
14950.8 32164.6 lineto
15438.2 32164.6 lineto
stroke
newpath
16113.2 32952 moveto
15963.2 32952 lineto
15888.2 32914.5 lineto
15850.7 32877 lineto
15775.7 32764.5 lineto
15738.2 32614.6 lineto
15738.2 32314.6 lineto
15775.7 32239.6 lineto
15813.2 32202.1 lineto
15888.2 32164.6 lineto
16038.2 32164.6 lineto
16113.2 32202.1 lineto
16150.7 32239.6 lineto
16188.2 32314.6 lineto
16188.2 32502.1 lineto
16150.7 32577.1 lineto
16113.2 32614.6 lineto
16038.2 32652.1 lineto
15888.2 32652.1 lineto
15813.2 32614.6 lineto
15775.7 32577.1 lineto
15738.2 32502.1 lineto
stroke
newpath
16675.6 32952 moveto
16750.6 32952 lineto
16825.6 32914.5 lineto
16863.1 32877 lineto
16900.6 32802 lineto
16938.1 32652.1 lineto
16938.1 32464.6 lineto
16900.6 32314.6 lineto
16863.1 32239.6 lineto
16825.6 32202.1 lineto
16750.6 32164.6 lineto
16675.6 32164.6 lineto
16600.6 32202.1 lineto
16563.1 32239.6 lineto
16525.6 32314.6 lineto
16488.1 32464.6 lineto
16488.1 32652.1 lineto
16525.6 32802 lineto
16563.1 32877 lineto
16600.6 32914.5 lineto
16675.6 32952 lineto
stroke
newpath
17238 32952 moveto
17238 32802 lineto
stroke
newpath
17538 32952 moveto
17538 32802 lineto
stroke
newpath
18700.3 31864.7 moveto
18662.8 31902.1 lineto
18587.9 32014.6 lineto
18550.4 32089.6 lineto
18512.9 32202.1 lineto
18475.4 32389.6 lineto
18475.4 32539.6 lineto
18512.9 32727 lineto
18550.4 32839.5 lineto
18587.9 32914.5 lineto
18662.8 33027 lineto
18700.3 33064.5 lineto
stroke
newpath
19337.8 32689.5 moveto
19337.8 32164.6 lineto
stroke
newpath
19150.3 32989.5 moveto
18962.8 32427.1 lineto
19450.2 32427.1 lineto
stroke
newpath
20350.1 32164.6 moveto
20350.1 32952 lineto
stroke
newpath
20687.6 32164.6 moveto
20687.6 32577.1 lineto
20650.1 32652.1 lineto
20575.1 32689.5 lineto
20462.6 32689.5 lineto
20387.6 32652.1 lineto
20350.1 32614.6 lineto
stroke
newpath
21175 32164.6 moveto
21100 32202.1 lineto
21062.5 32239.6 lineto
21025 32314.6 lineto
21025 32539.6 lineto
21062.5 32614.6 lineto
21100 32652.1 lineto
21175 32689.5 lineto
21287.5 32689.5 lineto
21362.5 32652.1 lineto
21400 32614.6 lineto
21437.5 32539.6 lineto
21437.5 32314.6 lineto
21400 32239.6 lineto
21362.5 32202.1 lineto
21287.5 32164.6 lineto
21175 32164.6 lineto
stroke
newpath
21887.4 32164.6 moveto
21812.5 32202.1 lineto
21775 32277.1 lineto
21775 32952 lineto
stroke
newpath
22487.4 32202.1 moveto
22412.4 32164.6 lineto
22262.4 32164.6 lineto
22187.4 32202.1 lineto
22149.9 32277.1 lineto
22149.9 32577.1 lineto
22187.4 32652.1 lineto
22262.4 32689.5 lineto
22412.4 32689.5 lineto
22487.4 32652.1 lineto
22524.9 32577.1 lineto
22524.9 32502.1 lineto
22149.9 32427.1 lineto
stroke
newpath
22824.8 32202.1 moveto
22899.8 32164.6 lineto
23049.8 32164.6 lineto
23124.8 32202.1 lineto
23162.3 32277.1 lineto
23162.3 32314.6 lineto
23124.8 32389.6 lineto
23049.8 32427.1 lineto
22937.3 32427.1 lineto
22862.3 32464.6 lineto
22824.8 32539.6 lineto
22824.8 32577.1 lineto
22862.3 32652.1 lineto
22937.3 32689.5 lineto
23049.8 32689.5 lineto
23124.8 32652.1 lineto
stroke
newpath
23424.7 31864.7 moveto
23462.2 31902.1 lineto
23537.2 32014.6 lineto
23574.7 32089.6 lineto
23612.2 32202.1 lineto
23649.7 32389.6 lineto
23649.7 32539.6 lineto
23612.2 32727 lineto
23574.7 32839.5 lineto
23537.2 32914.5 lineto
23462.2 33027 lineto
23424.7 33064.5 lineto
stroke
newpath
24849.6 31864.7 moveto
24812.1 31902.1 lineto
24737.1 32014.6 lineto
24699.6 32089.6 lineto
24662.1 32202.1 lineto
24624.6 32389.6 lineto
24624.6 32539.6 lineto
24662.1 32727 lineto
24699.6 32839.5 lineto
24737.1 32914.5 lineto
24812.1 33027 lineto
24849.6 33064.5 lineto
stroke
newpath
25149.5 32689.5 moveto
25149.5 32164.6 lineto
stroke
newpath
25149.5 32614.6 moveto
25187 32652.1 lineto
25262 32689.5 lineto
25374.5 32689.5 lineto
25449.5 32652.1 lineto
25487 32577.1 lineto
25487 32164.6 lineto
stroke
newpath
25974.4 32164.6 moveto
25899.4 32202.1 lineto
25861.9 32239.6 lineto
25824.4 32314.6 lineto
25824.4 32539.6 lineto
25861.9 32614.6 lineto
25899.4 32652.1 lineto
25974.4 32689.5 lineto
26086.9 32689.5 lineto
26161.9 32652.1 lineto
26199.4 32614.6 lineto
26236.9 32539.6 lineto
26236.9 32314.6 lineto
26199.4 32239.6 lineto
26161.9 32202.1 lineto
26086.9 32164.6 lineto
25974.4 32164.6 lineto
stroke
newpath
26461.9 32689.5 moveto
26761.8 32689.5 lineto
stroke
newpath
26574.4 32952 moveto
26574.4 32277.1 lineto
26611.9 32202.1 lineto
26686.8 32164.6 lineto
26761.8 32164.6 lineto
stroke
newpath
27624.2 32689.5 moveto
27624.2 31902.1 lineto
stroke
newpath
27624.2 32652.1 moveto
27699.2 32689.5 lineto
27849.2 32689.5 lineto
27924.2 32652.1 lineto
27961.7 32614.6 lineto
27999.2 32539.6 lineto
27999.2 32314.6 lineto
27961.7 32239.6 lineto
27924.2 32202.1 lineto
27849.2 32164.6 lineto
27699.2 32164.6 lineto
27624.2 32202.1 lineto
stroke
newpath
28449.1 32164.6 moveto
28374.1 32202.1 lineto
28336.6 32277.1 lineto
28336.6 32952 lineto
stroke
newpath
29086.5 32164.6 moveto
29086.5 32577.1 lineto
29049 32652.1 lineto
28974.1 32689.5 lineto
28824.1 32689.5 lineto
28749.1 32652.1 lineto
stroke
newpath
29086.5 32202.1 moveto
29011.6 32164.6 lineto
28824.1 32164.6 lineto
28749.1 32202.1 lineto
28711.6 32277.1 lineto
28711.6 32352.1 lineto
28749.1 32427.1 lineto
28824.1 32464.6 lineto
29011.6 32464.6 lineto
29086.5 32502.1 lineto
stroke
newpath
29349 32689.5 moveto
29649 32689.5 lineto
stroke
newpath
29461.5 32952 moveto
29461.5 32277.1 lineto
29499 32202.1 lineto
29574 32164.6 lineto
29649 32164.6 lineto
stroke
newpath
30211.4 32202.1 moveto
30136.4 32164.6 lineto
29986.4 32164.6 lineto
29911.4 32202.1 lineto
29873.9 32277.1 lineto
29873.9 32577.1 lineto
29911.4 32652.1 lineto
29986.4 32689.5 lineto
30136.4 32689.5 lineto
30211.4 32652.1 lineto
30248.9 32577.1 lineto
30248.9 32502.1 lineto
29873.9 32427.1 lineto
stroke
newpath
30923.8 32164.6 moveto
30923.8 32952 lineto
stroke
newpath
30923.8 32202.1 moveto
30848.8 32164.6 lineto
30698.8 32164.6 lineto
30623.8 32202.1 lineto
30586.4 32239.6 lineto
30548.9 32314.6 lineto
30548.9 32539.6 lineto
30586.4 32614.6 lineto
30623.8 32652.1 lineto
30698.8 32689.5 lineto
30848.8 32689.5 lineto
30923.8 32652.1 lineto
stroke
newpath
31223.8 31864.7 moveto
31261.3 31902.1 lineto
31336.3 32014.6 lineto
31373.8 32089.6 lineto
31411.3 32202.1 lineto
31448.7 32389.6 lineto
31448.7 32539.6 lineto
31411.3 32727 lineto
31373.8 32839.5 lineto
31336.3 32914.5 lineto
31261.3 33027 lineto
31223.8 33064.5 lineto
stroke
showpage
grestore
%%EOF
